<?xml version="1.0" standalone="no"?>
<!DOCTYPE svg PUBLIC "-//W3C//DTD SVG 1.1//EN" "http://www.w3.org/Graphics/SVG/1.1/DTD/svg11.dtd" >
<svg xmlns="http://www.w3.org/2000/svg">
    <metadata></metadata>
    <defs>
        <font id="pf_din_text_cond_prothin" horiz-adv-x="839">
            <font-face units-per-em="2048" ascent="1536" descent="-512"/>
            <missing-glyph horiz-adv-x="403"/>
            <glyph unicode="&#xfb01;" horiz-adv-x="794"
                   d="M45 936v74h115v233q0 131 73.5 188.5t180.5 57.5q158 0 250 -92l-56 -64q-47 45 -96 57.5t-98 12.5q-162 0 -162 -162v-231h407v-1010h-90v936h-317v-936h-92v936h-115z"/>
            <glyph unicode="&#xfb02;" horiz-adv-x="843"
                   d="M41 934v76h119v229q0 131 70.5 194.5t183.5 63.5q47 0 106.5 -10t138.5 -39v-1219q0 -74 32 -115.5t112 -41.5h20v-78h-30q-106 0 -164 47t-58 170v361.5v327v274v208.5q-43 16 -81.5 21.5t-77.5 5.5q-86 0 -124 -43t-38 -135v-221h215v-76h-215v-934h-90v934h-119z"/>
            <glyph unicode="&#xfb03;" horiz-adv-x="1206"
                   d="M45 936v74h115v200q0 66 19.5 113t54 78t81.5 45t101 14q113 0 200 -51q37 47 89.5 67.5t117.5 20.5q156 0 250 -94l-57 -62q-45 43 -94.5 56.5t-100.5 13.5q-78 0 -121 -41t-43 -121v-239h410v-1010h-90v936h-320v-936h-88v936h-317v-936h-92v936h-115zM252 1010h317 v239q0 20 2 41t7 39q-41 29 -85 38t-77 9q-86 0 -125 -44t-39 -124v-198z"/>
            <glyph unicode="&#xfb04;" horiz-adv-x="1253"
                   d="M45 936v74h115v200q0 66 20.5 113t55 77t81 44t99.5 14q51 0 102 -12t96 -39q35 51 89.5 71.5t119.5 20.5q47 0 108.5 -10t137.5 -41v-1219q0 -74 32 -115.5t111 -41.5h21v-78h-31q-106 0 -164.5 47t-58.5 170v1175q-43 16 -83 22.5t-75 6.5q-164 0 -164 -182v-223h220 v-74h-220v-936h-88v936h-317v-936h-92v936h-115zM252 1010h317v233q0 51 9 84q-41 29 -86 37t-76 8q-164 0 -164 -162v-200z"/>
            <glyph horiz-adv-x="0"/>
            <glyph horiz-adv-x="682"/>
            <glyph unicode=" " horiz-adv-x="403"/>
            <glyph unicode="&#x09;" horiz-adv-x="403"/>
            <glyph unicode="&#xa0;" horiz-adv-x="403"/>
            <glyph unicode="!" horiz-adv-x="421"
                   d="M160 0v111h104v-111h-104zM164 1425h94q-2 -59 -3 -144t-2 -184.5t-2 -206t-2 -205.5t-2 -184t-1 -145h-70q0 59 -1 144.5t-2 184.5t-2 205.5t-2 206t-3 184.5t-2 144z"/>
            <glyph unicode="&#x22;" horiz-adv-x="444" d="M102 1063v362h72v-362h-72zM276 1063v362h72v-362h-72z"/>
            <glyph unicode="#"
                   d="M12 457v63h168q2 16 12.5 73.5t21.5 122t20.5 122t11.5 73.5h-158v64h168q2 18 13.5 84.5t23.5 142.5t23.5 142.5t13.5 85.5h67l-73 -455h268q2 18 13 84.5t23.5 142.5t24 142.5t13.5 85.5h67l-74 -455h166v-64h-176l-65 -391h161v-63h-172q-2 -12 -7 -47t-12 -82 t-15.5 -99.5t-15.5 -98.5t-13 -82l-8 -48h-68l72 457h-266l-76 -457h-68l76 457h-160zM250 520h266q2 16 12.5 73.5t20.5 122t20.5 122t12.5 73.5h-269z"/>
            <glyph unicode="$"
                   d="M29 209l73 45q39 -72 110 -125t177 -59v624q-84 31 -147.5 62.5t-105.5 74.5t-62.5 98.5t-20.5 131.5q0 154 85 256t251 113v172h57v-172q129 -6 208 -59.5t116 -125.5l-76 -51q-37 66 -95 105.5t-153 46.5v-580q88 -25 155 -56.5t111 -77.5t65.5 -110.5t21.5 -152.5 q0 -170 -86 -272.5t-267 -110.5v-215h-57v215q-137 6 -224 65.5t-136 157.5zM143 1061q0 -57 17.5 -99t48.5 -74t76 -55.5t104 -46.5v560q-117 -8 -181.5 -88t-64.5 -197zM446 70q133 8 197 89t64 208q0 74 -18.5 123t-52.5 82.5t-82 56t-108 45.5v-604z"/>
            <glyph unicode="%" horiz-adv-x="1228"
                   d="M72 760v473q0 96 64.5 146.5t154.5 50.5q88 0 151.5 -50.5t63.5 -146.5v-473q0 -96 -64.5 -147.5t-150.5 -51.5q-90 0 -154.5 51.5t-64.5 147.5zM147 764q0 -59 39 -96t105 -37q61 0 100 37t39 96v467q0 59 -39 96t-100 37q-66 0 -105 -37t-39 -96v-467zM193 -35 l753 1497h74l-756 -1497h-71zM717 188v478q0 47 17.5 83.5t48 61.5t70.5 37t83 12q86 0 150.5 -49t64.5 -145v-478q0 -96 -64.5 -146t-150.5 -50q-43 0 -83 13t-70.5 38t-48 61.5t-17.5 83.5zM793 190q0 -59 38.5 -94t104.5 -35q61 0 100 35t39 94v474q0 59 -39 94t-100 35 q-66 0 -104.5 -35t-38.5 -94v-474z"/>
            <glyph unicode="&#x26;" horiz-adv-x="1103"
                   d="M121 330q0 135 69.5 246.5t200.5 211.5q-72 113 -112.5 193t-40.5 168q0 57 18 110.5t54 93.5t89 63.5t125 23.5q92 0 156.5 -24.5t118.5 -86.5l-68 -57q-43 47 -92 64.5t-113 17.5q-53 0 -90 -19.5t-61.5 -48.5t-35.5 -65.5t-11 -69.5q0 -47 17 -99.5t56 -117.5 q92 -156 204 -314.5t214 -308.5q35 66 50.5 138.5t21.5 138.5l86 -4q-10 -86 -34.5 -177.5t-68.5 -170.5q41 -59 83 -119t83 -117h-110q-29 41 -56.5 81t-56.5 81q-86 -100 -173 -137t-185 -37q-147 0 -242.5 88t-95.5 254zM209 336q0 -123 72.5 -195.5t189.5 -72.5 q78 0 157 41.5t138 119.5q-82 123 -163 244t-165 244q-111 -86 -170 -181.5t-59 -199.5z"/>
            <glyph unicode="'" horiz-adv-x="337" d="M133 1063v362h72v-362h-72z"/>
            <glyph unicode="(" horiz-adv-x="489"
                   d="M123 614q0 117 20.5 235t58.5 227.5t91 208.5t117 183l43 -22q-55 -90 -99.5 -189.5t-75 -205t-47 -214t-16.5 -212.5q0 -229 65.5 -446.5t172.5 -391.5l-37 -27q-61 80 -114.5 177.5t-93.5 207t-62.5 228.5t-22.5 241z"/>
            <glyph unicode=")" horiz-adv-x="489"
                   d="M82 -215q106 174 171.5 390t65.5 446q0 211 -63 426t-174 395q10 6 20.5 11t20.5 11q63 -84 116.5 -183t91.5 -209.5t59.5 -227.5t21.5 -236q0 -121 -22.5 -239.5t-62.5 -227t-93.5 -206t-112.5 -177.5z"/>
            <glyph unicode="*" horiz-adv-x="688"
                   d="M59 1186l25 82l233 -99q0 6 -2 44t-4 83t-5 84t-3 43h84l-16 -254l237 99l25 -82l-242 -72l162 -199q-2 -2 -12.5 -10t-22.5 -16t-22.5 -16.5t-12.5 -10.5l-137 221q-4 -4 -24.5 -36.5t-44 -72.5t-44 -74t-22.5 -38l-70 51l158 201q-6 0 -42 11.5t-79 23.5t-79 23.5 t-40 13.5z"/>
            <glyph unicode="+" d="M43 549v76h340v356h72v-356h340v-76h-340v-361h-72v361h-340z"/>
            <glyph unicode="," horiz-adv-x="317" d="M84 -199l47 199h-31v121h117v-117l-76 -203h-57z"/>
            <glyph unicode="-" horiz-adv-x="708" d="M106 510v82h508v-82h-508z"/>
            <glyph unicode="." horiz-adv-x="309" d="M100 0v125h115v-125h-115z"/>
            <glyph unicode="/" horiz-adv-x="817" d="M59 -68l566 1545h77l-567 -1545h-76z"/>
            <glyph unicode="0"
                   d="M98 301v821q0 76 27 135.5t71 98.5t102 59.5t122 20.5q63 0 121.5 -20.5t102.5 -59.5t70.5 -98.5t26.5 -135.5v-821q0 -78 -26.5 -136.5t-70.5 -97t-102.5 -59t-121.5 -20.5t-121.5 20.5t-102.5 59t-71 97t-27 136.5zM186 307q0 -109 64.5 -173t169.5 -64 q104 0 168.5 64.5t64.5 172.5v811q0 109 -64.5 172.5t-168.5 63.5t-169 -63.5t-65 -172.5v-811z"/>
            <glyph unicode="1" d="M223 1180v100l211 145h90v-1425h-88v1327z"/>
            <glyph unicode="2"
                   d="M94 0v86l496 784q33 51 54.5 116t21.5 124q0 47 -13.5 90t-42 77t-74 54.5t-108.5 20.5q-88 0 -150.5 -56.5t-84.5 -162.5l-91 16q25 129 110 207t220 78q160 0 245 -89.5t85 -230.5q0 -82 -28.5 -153.5t-71.5 -143.5l-465 -733h538v-84h-641z"/>
            <glyph unicode="3"
                   d="M98 244l86 22q16 -84 65.5 -140t156.5 -56q72 0 118.5 22.5t75.5 63.5t41 99t12 130q0 166 -50 241.5t-175 75.5h-72v80h58q117 0 174 63.5t57 209.5q0 61 -11 116.5t-38 95.5t-73 63.5t-113 23.5q-53 0 -91 -17.5t-64 -45t-40 -63.5t-22 -73l-89 19q23 115 96.5 188.5 t211.5 73.5q94 0 156.5 -30t99.5 -80t52 -118.5t15 -148.5q0 -41 -6 -89t-25.5 -92t-54.5 -79t-90 -54q66 -14 102.5 -52t55 -87t22.5 -105.5t4 -107.5q0 -86 -16 -159.5t-55 -129t-104.5 -86t-166.5 -30.5q-51 0 -100 13t-91 44t-71.5 80t-40.5 119z"/>
            <glyph unicode="4" d="M53 238v88l406 1099h94l-408 -1103h443v419h88v-419h119v-84h-119v-236h-88v236h-535z"/>
            <glyph unicode="5"
                   d="M106 248l87 20q16 -86 67 -143t160 -57q76 0 123 26.5t72.5 77.5t33.5 125t8 168q0 193 -48 287t-185 94q-61 0 -123.5 -32t-91.5 -83h-82v694h602v-82h-520l2 -509q49 49 110.5 70.5t120.5 21.5q90 0 148.5 -31t93.5 -89t48 -143t13 -194q0 -119 -15 -209t-52 -150.5 t-100.5 -91t-161.5 -30.5q-260 0 -310 260z"/>
            <glyph unicode="6"
                   d="M104 371q0 61 4.5 109t12.5 87t19.5 72t25.5 63l317 723h95q-76 -172 -150 -338.5t-149 -334.5h2q71 45 161 45q305 0 306 -402q0 -199 -85 -303t-239 -104q-156 0 -238 93t-82 290zM190 381q0 -156 55.5 -234.5t178.5 -78.5q236 0 235 321q0 156 -54 243t-179 87 q-66 0 -111 -24.5t-72.5 -69.5t-40 -107.5t-12.5 -136.5z"/>
            <glyph unicode="7" d="M96 1141v284h656v-82l-453 -1343h-92l452 1343h-481v-202h-82z"/>
            <glyph unicode="8"
                   d="M92 387q0 160 52.5 242t129.5 110q-82 37 -126 113t-44 217q0 98 25 168t69 114t102 65.5t126 21.5t127 -20.5t102 -65.5t68 -116t25 -169q0 -139 -47.5 -216t-122.5 -112q80 -31 130 -110.5t50 -245.5q0 -106 -25.5 -181t-71 -123t-105.5 -69.5t-130 -21.5t-130 20.5 t-105.5 67.5t-72 123.5t-26.5 187.5zM180 391q0 -172 66.5 -247.5t179.5 -75.5q244 0 244 321q0 86 -18.5 146.5t-50.5 97.5t-77 53t-98 16t-98 -17t-78 -54t-51.5 -96.5t-18.5 -143.5zM190 1063q0 -147 63.5 -216t172.5 -69q106 0 169.5 70t63.5 217q0 291 -233 291 q-115 0 -175.5 -73t-60.5 -220z"/>
            <glyph unicode="9"
                   d="M104 1028q0 12 1 24.5t4 22.5q8 180 94 271.5t227 91.5q156 0 238 -94.5t82 -290.5q0 -123 -17.5 -196t-46.5 -136q-31 -72 -74 -168t-87 -197.5t-86 -195.5t-70 -160h-95l299 672h-2q-71 -45 -161 -45q-150 0 -228 101t-78 300zM193 1036q0 -162 54 -246.5t183 -84.5 q125 0 178.5 90t53.5 245q0 156 -55.5 236t-178.5 80q-117 0 -176 -81t-59 -239z"/>
            <glyph unicode=":" horiz-adv-x="317" d="M100 0v125h115v-125h-115zM100 635v125h115v-125h-115z"/>
            <glyph unicode=";" horiz-adv-x="317"
                   d="M84 -199l47 199h-31v121h117v-117l-76 -203h-57zM100 635v123h117v-123h-117z"/>
            <glyph unicode="&#x3c;"
                   d="M49 551v72l735 366v-80l-653 -323q20 -8 71.5 -33t117 -56.5t138 -68.5t139.5 -69.5t117 -58.5t72 -34v-82z"/>
            <glyph unicode="=" d="M43 371v75h752v-75h-752zM43 700v74h752v-74h-752z"/>
            <glyph unicode="&#x3e;"
                   d="M51 184v82q20 8 71.5 34t117 58.5t138.5 69.5t138.5 68.5t116.5 56.5t72 33l-654 323v80l737 -366v-72z"/>
            <glyph unicode="?" horiz-adv-x="806"
                   d="M66 1128q27 152 122 230t224 78q88 0 151.5 -27t105.5 -75t61.5 -112.5t19.5 -138.5q0 -59 -12.5 -106t-32 -85t-44 -71t-47.5 -63q-23 -29 -47 -60.5t-45.5 -66.5t-36 -75t-16.5 -87v-141h-90v139q0 111 67 207q35 51 72 96t67.5 92t51 98.5t20.5 116.5q0 53 -13 103.5 t-42 88.5t-78 60.5t-118 22.5q-53 0 -96.5 -19.5t-76 -53.5t-53 -77t-26.5 -90zM373 0v113h106v-113h-106z"/>
            <glyph unicode="@" horiz-adv-x="1550"
                   d="M92 686q0 164 49 303t140.5 239.5t222.5 157t297 56.5q150 0 271.5 -47t207.5 -132t133 -205t47 -267q0 -135 -27.5 -229.5t-73.5 -153t-105.5 -84t-123.5 -25.5q-14 0 -39.5 4t-53 16.5t-52 36t-35.5 62.5q-2 0 -2 -2q-18 -35 -48 -55.5t-62.5 -33t-65.5 -16.5t-59 -4 q-109 0 -171.5 57.5t-62.5 159.5q0 45 13.5 88t42 76t73.5 52.5t109 19.5h213v112q0 72 -38 113t-136 41q-51 0 -99.5 -20.5t-78.5 -61.5q-16 10 -27.5 18.5t-28.5 18.5q43 53 102.5 84t131.5 31q51 0 96 -10.5t79 -35t53.5 -67.5t19.5 -109v-364q0 -66 31.5 -103.5 t94.5 -37.5q53 0 100.5 23.5t81.5 73.5t53 130t19 195q0 141 -47 249.5t-125.5 182t-183 111.5t-219.5 38q-154 0 -272.5 -52t-200.5 -143.5t-125 -217t-43 -273.5q0 -160 45 -288t129 -219t205 -139t272 -48q106 0 200.5 18.5t176.5 61.5l29 -68q-92 -35 -190.5 -58.5 t-205.5 -23.5q-166 0 -302 50.5t-232 147.5t-149.5 239.5t-53.5 326.5zM553 526q0 -78 50 -114.5t128 -36.5q37 0 72 9t63.5 27.5t46 48t17.5 70.5v166h-197q-78 0 -129 -39t-51 -131z"/>
            <glyph unicode="A" horiz-adv-x="985"
                   d="M25 0l415 1425h103l418 -1425h-97q-8 31 -21.5 80t-28.5 100t-29.5 100.5t-22.5 79.5h-541l-102 -360h-94zM242 444h497l-149 512l-96 349h-7q-115 -412 -245 -861z"/>
            <glyph unicode="B" horiz-adv-x="1017"
                   d="M135 0v1425h406q190 0 280 -98t90 -260q0 -49 -9 -96t-30.5 -90t-60.5 -78t-96 -58v-2q61 -16 104 -51t68.5 -82t38 -102.5t12.5 -110.5q0 -100 -27.5 -175t-77 -124t-117 -73.5t-147.5 -24.5h-434zM225 88h324q82 0 138 24.5t91 67.5t50.5 100.5t15.5 122.5 q0 131 -68.5 214t-212.5 83h-338v-612zM225 782h320q139 0 207.5 76t68.5 207q0 127 -71.5 202.5t-223.5 75.5h-301v-561z"/>
            <glyph unicode="C" horiz-adv-x="935"
                   d="M102 393v641q0 88 29 163t81 127t127 82t167 30q137 0 240.5 -69t136.5 -202l-88 -30q-23 104 -100 159.5t-189 55.5q-147 0 -230 -89.5t-83 -226.5v-647q0 -68 21.5 -126t62 -101t99 -66.5t130.5 -23.5q111 0 188.5 57t104.5 170l86 -27q-14 -72 -50 -125t-86.5 -87.5 t-113 -53t-129.5 -18.5q-92 0 -167 29.5t-127 83t-81 128t-29 166.5z"/>
            <glyph unicode="D" horiz-adv-x="1036"
                   d="M133 0v1425h397q147 0 237.5 -56t133.5 -167q25 -72 29 -196.5t4 -280.5v-154q0 -111 -4 -195.5t-27 -144.5q-27 -68 -67.5 -112.5t-94 -71.5t-117 -37t-132.5 -10h-359zM225 84h281q231 0 303 170q16 37 24.5 91t8.5 101v478q0 70 -5.5 124t-21.5 111q-25 84 -103.5 133 t-205.5 49h-281v-1257z"/>
            <glyph unicode="E" horiz-adv-x="905" d="M135 0v1425h723v-86h-633v-571h547v-82h-547v-598h633v-88h-723z"/>
            <glyph unicode="F" horiz-adv-x="880" d="M135 0v1425h723v-86h-629v-573h543v-82h-543v-684h-94z"/>
            <glyph unicode="G" horiz-adv-x="1003"
                   d="M100 393v641q0 88 29 163t82 128t127 83t166 30q139 0 243.5 -70t135.5 -205l-88 -26q-23 104 -101 159.5t-188 55.5q-74 0 -131.5 -23.5t-98 -66.5t-62 -101.5t-21.5 -126.5v-649q0 -68 21.5 -125t62 -100t99 -66.5t130.5 -23.5q70 0 127 24.5t98 66.5t64.5 99t23.5 123 v262h-250v84h342v-334q0 -90 -29.5 -165.5t-84 -130t-129 -84t-164.5 -29.5q-92 0 -167 29.5t-127 83t-81 128t-29 166.5z"/>
            <glyph unicode="H" horiz-adv-x="1062" d="M135 0v1425h90v-657h611v657h94v-1425h-94v684h-611v-684h-90z"/>
            <glyph unicode="I" horiz-adv-x="397" d="M152 0v1425h92v-1425h-92z"/>
            <glyph unicode="J" horiz-adv-x="788"
                   d="M25 76l61 67q83 -69 179 -69h3q57 0 109.5 13t91.5 47t61.5 90.5t22.5 140.5v1060h94v-1079q0 -92 -28.5 -158.5t-79 -111.5t-119 -66.5t-148.5 -21.5q-63 0 -131.5 21.5t-115.5 66.5z"/>
            <glyph unicode="K" horiz-adv-x="1026"
                   d="M131 0v1425h92v-893h2q150 225 299.5 446.5t298.5 446.5h103l-369 -551l436 -874h-100l-393 793l-277 -406v-387h-92z"/>
            <glyph unicode="L" horiz-adv-x="882" d="M135 0v1425h90v-1337h621v-88h-711z"/>
            <glyph unicode="M" horiz-adv-x="1304"
                   d="M131 0v1425h94q57 -135 114.5 -269t117.5 -269l196 -467h4l201 469l232 536h90v-1425h-90v1208h-3l-215 -508l-182 -421h-72l-182 421l-209 500h-6v-1200h-90z"/>
            <glyph unicode="N" horiz-adv-x="1120"
                   d="M133 0v1425h90l412 -747l258 -473h6v1220h90v-1425h-92q-102 188 -204.5 375.5t-207.5 378.5q-66 117 -129 234.5t-129 236.5h-2v-1225h-92z"/>
            <glyph unicode="O" horiz-adv-x="993"
                   d="M90 403v633q0 82 26.5 156t79 127t128 85t174.5 32q92 0 165.5 -30t126 -83t81 -127t28.5 -160v-641q0 -88 -28.5 -162.5t-81 -130t-127 -86t-164.5 -30.5q-98 0 -174 31.5t-128.5 87t-79 132t-26.5 166.5zM182 399q0 -145 83 -236t233 -91q70 0 126 25.5t97 68.5 t63.5 101.5t22.5 123.5v641q0 63 -20.5 120.5t-60.5 101.5t-97.5 70t-130.5 26q-76 0 -135.5 -26t-99.5 -69t-60.5 -100t-20.5 -123v-633z"/>
            <glyph unicode="P" horiz-adv-x="964"
                   d="M135 0v1425h393q195 0 298.5 -101t103.5 -306q0 -82 -21.5 -156t-68.5 -130t-122 -90t-181 -34h-310v-608h-92zM227 694h299q86 0 145.5 24.5t96.5 68.5t53.5 103.5t16.5 129.5q0 154 -78 237.5t-236 83.5h-297v-647z"/>
            <glyph unicode="Q" horiz-adv-x="1009"
                   d="M96 403v633q0 82 27 156t79 127t128 85t174 32q92 0 166.5 -30t127 -83t81 -127t28.5 -160v-641q0 -70 -15 -127t-42 -104l160 -125l-49 -64q-8 6 -30 23.5t-47.5 37t-49 38t-35.5 28.5q-53 -57 -129 -86.5t-166 -29.5q-98 0 -174 31.5t-128 87t-79 132t-27 166.5z M188 1032l2 -633q0 -145 83 -236t233 -91q137 0 219 88l-174 137l53 61l170 -135q39 74 39 168v641q0 63 -20.5 120.5t-60.5 101.5t-97 70t-131 26q-76 0 -135.5 -26t-99.5 -69t-60.5 -100t-20.5 -123z"/>
            <glyph unicode="R" horiz-adv-x="1005"
                   d="M135 0v1425h412q193 0 288 -99t95 -275q0 -147 -71 -248t-212 -133q70 -162 143.5 -335t145.5 -335h-107q-70 166 -138 330t-136 329q-29 -2 -58.5 -2h-60.5h-209v-657h-92zM227 737h299q147 0 228.5 77t81.5 235q0 147 -80 219.5t-228 72.5h-301v-604z"/>
            <glyph unicode="S" horiz-adv-x="948"
                   d="M61 213l80 47q45 -78 126 -132t206 -54q156 0 231.5 82t75.5 215q0 76 -21.5 127t-60.5 85.5t-95 58.5t-126 46q-100 31 -173 63.5t-120 75.5t-69.5 100.5t-22.5 137.5q0 82 25.5 150.5t75 117.5t121 77t163.5 28q154 0 237 -46t136 -128l-82 -56q-41 70 -110.5 107 t-182.5 37q-139 0 -214 -82t-75 -205q0 -66 23.5 -111t65.5 -77.5t102.5 -57t134.5 -49.5q92 -29 160.5 -61.5t115 -76.5t69 -107.5t22.5 -153.5q0 -176 -102.5 -279.5t-305.5 -103.5q-158 0 -257 60.5t-153 164.5z"/>
            <glyph unicode="T" horiz-adv-x="817" d="M12 1341v84h791v-84h-348v-1341h-90v1341h-353z"/>
            <glyph unicode="U" horiz-adv-x="1024"
                   d="M109 385v1040h90v-1034q0 -72 24.5 -130t66.5 -99t99 -64.5t123 -23.5q63 0 120.5 20.5t99.5 60.5t66.5 97t24.5 133v1040h92v-1046q0 -94 -31.5 -167t-87 -123t-129 -75.5t-155.5 -25.5q-84 0 -157.5 26.5t-128 77.5t-86 125t-31.5 168z"/>
            <glyph unicode="V" horiz-adv-x="927"
                   d="M25 1425h94l268 -1013l72 -277h2q16 72 33.5 139.5t33.5 137.5l275 1013h94q-98 -358 -194.5 -712.5t-194.5 -712.5h-96z"/>
            <glyph unicode="W" horiz-adv-x="1423"
                   d="M33 1425h92q10 -55 30.5 -154.5t45 -220t50 -253.5t50.5 -255t44.5 -223.5t29.5 -160.5h6q31 139 60.5 266t64.5 276l168 725h80l196 -856l97 -411h4l79 411q12 59 28 134t31 157t30.5 165t30 159t26.5 138t22 103h95l-295 -1425h-97l-198 856q-23 96 -45.5 190.5 t-44.5 190.5h-4q-23 -96 -44.5 -190.5t-43.5 -190.5l-197 -856h-96q-74 358 -146.5 712.5t-148.5 712.5z"/>
            <glyph unicode="X" horiz-adv-x="868"
                   d="M18 0l367 729l-348 694h100l297 -606l295 606h100l-348 -694l369 -729h-102l-314 637l-315 -637h-101z"/>
            <glyph unicode="Y" horiz-adv-x="845"
                   d="M14 1425h97l184 -432l127 -295l123 297q10 25 36.5 85.5t55.5 129t55.5 130t36.5 85.5h94l-360 -831v-594h-88v594z"/>
            <glyph unicode="Z" horiz-adv-x="811" d="M47 0v84l619 1257h-584v84h680v-82l-617 -1257h607v-86h-705z"/>
            <glyph unicode="[" horiz-adv-x="442" d="M141 -221v1648h262v-65h-180v-1518h180v-65h-262z"/>
            <glyph unicode="\" horiz-adv-x="520" d="M4 1477h74l428 -1551h-74z"/>
            <glyph unicode="]" horiz-adv-x="442" d="M76 -156h178v1518h-178v65h260v-1650h-260v67z"/>
            <glyph unicode="^"
                   d="M55 725l330 694h72l329 -692h-79l-287 608q-8 -18 -29.5 -65t-50.5 -108.5t-61.5 -130t-61.5 -130t-50.5 -110t-29.5 -66.5h-82z"/>
            <glyph unicode="_" horiz-adv-x="1017" d="M0 -156h1018v-75h-1018v75z"/>
            <glyph unicode="`" horiz-adv-x="843" d="M360 1444l99 37l147 -312l-53 -22z"/>
            <glyph unicode="a" horiz-adv-x="837"
                   d="M63 270q0 61 18.5 117.5t57.5 97.5t99.5 65.5t144.5 24.5h268v156q0 96 -55 151.5t-172 55.5q-80 0 -142.5 -26.5t-99.5 -77.5q-10 6 -34.5 23t-34.5 24q49 66 122.5 103.5t188.5 37.5q68 0 126 -13.5t100 -47t66.5 -90t24.5 -142.5v-729h-90v96h-6q-47 -68 -125 -89 t-158 -21q-141 0 -220 77.5t-79 206.5zM150 276q0 -92 60 -150t177 -58q47 0 94 10t85 34.5t61.5 63.5t23.5 96v224h-264q-102 0 -169.5 -52.5t-67.5 -167.5z"/>
            <glyph unicode="b" horiz-adv-x="833"
                   d="M86 0v1481h90v-629h4q33 63 96.5 114.5t172.5 51.5t172 -43t95 -113.5t41 -162t9 -189.5q0 -100 -10.5 -194.5t-44 -167t-97 -116.5t-172.5 -44q-78 0 -146.5 30.5t-115.5 118.5q-2 0 -2 -1t-2 -1v-135h-90zM174 508q0 -68 5 -145.5t29.5 -143t75 -108.5t140.5 -43 q80 0 130 32.5t76.5 91t36 136.5t9.5 170q0 84 -6 162.5t-31 139t-75 97.5t-138 37q-84 0 -133 -42t-76 -105.5t-35 -138.5t-8 -140z"/>
            <glyph unicode="c" horiz-adv-x="761"
                   d="M70 510q0 102 15 194.5t56 163t113 111.5t182 41q106 0 179 -45t108 -131q-20 -12 -38.5 -22.5t-39.5 -20.5q-23 61 -77 99t-132 38q-92 0 -146 -37t-84 -97.5t-39 -137t-9 -156.5q0 -78 9 -157t37.5 -142.5t83 -103t144.5 -39.5q78 0 132 36.5t77 96.5 q18 -10 37.5 -19.5t40.5 -19.5q-35 -86 -111 -130t-180 -44q-115 0 -185.5 41t-108.5 112.5t-51 165.5t-13 203z"/>
            <glyph unicode="d" horiz-adv-x="833"
                   d="M63 498q0 98 10.5 192t45.5 167t101.5 118t176.5 45q92 0 151.5 -39t100.5 -100h4v602h90v-1483h-90v137h-4q-47 -86 -115.5 -118.5t-146.5 -32.5q-109 0 -172 43t-97 113.5t-44.5 163.5t-10.5 192zM154 496q0 -88 9 -166t35.5 -136.5t77 -92t130.5 -33.5q90 0 140 44 t73.5 110.5t28.5 144t5 143.5q0 72 -7 146.5t-31.5 136t-72.5 101.5t-130 42q-88 0 -139.5 -39t-78 -101.5t-33.5 -141.5t-7 -158z"/>
            <glyph unicode="e" horiz-adv-x="835"
                   d="M74 520q0 94 14 185.5t53 161t107.5 112.5t177.5 43q100 0 165.5 -35t104.5 -95.5t54.5 -139t15.5 -166.5v-94h-602q0 -100 12 -179.5t43 -134.5t84 -83.5t135 -28.5q74 0 135.5 38.5t83.5 98.5l78 -37q-35 -86 -114.5 -133t-178.5 -47q-113 0 -184.5 35.5t-112.5 104.5 t-56 168t-15 226zM166 565h508v6q0 74 -9.5 139.5t-37 117t-75.5 81t-126 29.5t-127 -30.5t-79 -82t-41 -119t-13 -141.5z"/>
            <glyph unicode="f" horiz-adv-x="464"
                   d="M45 936v74h117v239q0 123 53 179.5t156 56.5h86v-82h-82q-43 0 -67.5 -13.5t-37 -37t-15.5 -53t-3 -60.5v-229h201v-74h-201v-936h-90v936h-117z"/>
            <glyph unicode="g" horiz-adv-x="874"
                   d="M82 496q0 98 9 192t43 169t97.5 120t174.5 45q78 0 146.5 -32t115.5 -120l4 2v136h90v-1047q0 -184 -88 -286.5t-264 -102.5q-92 0 -165 43t-110 129q10 6 38 19.5t38 21.5q27 -53 76 -92t125 -39q137 0 198.5 82t61.5 211v209h-4q-35 -66 -97.5 -117t-171.5 -51t-172 43 t-95 113.5t-41 161.5t-9 190zM172 508q0 -84 6 -162t30.5 -139.5t74 -98t137.5 -36.5q82 0 132 41t76.5 104.5t35 139t8.5 143.5t-5 145.5t-29 143t-74 108.5t-140 43q-82 0 -132 -34t-77 -92t-35 -137t-8 -169z"/>
            <glyph unicode="h" horiz-adv-x="886"
                   d="M111 0v1485h88v-617h4q43 78 116.5 116t153.5 38q147 0 226 -85t79 -224v-713h-90v684q0 117 -55 183.5t-172 66.5q-57 0 -105.5 -20.5t-84 -57.5t-55 -87t-19.5 -107v-662h-86z"/>
            <glyph unicode="i" horiz-adv-x="362" d="M133 1286v100h96v-100h-96zM137 0v1010h88v-1010h-88z"/>
            <glyph unicode="j" horiz-adv-x="376"
                   d="M-16 -340h45q70 2 94 49t24 121v1178h93v-1196q0 -102 -46.5 -166t-146.5 -64h-63v78zM145 1286v98h99v-98h-99z"/>
            <glyph unicode="k" horiz-adv-x="845"
                   d="M117 0v1483h86v-1075h2l454 600h103l-281 -371l353 -637h-99l-311 565l-221 -293v-272h-86z"/>
            <glyph unicode="l" horiz-adv-x="397"
                   d="M123 201v1282h88v-1260q0 -74 24.5 -111.5t96.5 -37.5h39v-80h-43q-47 0 -85 9t-64.5 31.5t-41 63.5t-14.5 103z"/>
            <glyph unicode="m" horiz-adv-x="1464"
                   d="M119 0v1006h86v-138h4q43 78 112.5 114t147.5 36q111 0 181.5 -47t99.5 -125q47 82 119.5 127t168.5 45q147 0 225 -85t78 -222v-711h-90v664q0 127 -58 197.5t-175 70.5q-119 0 -182.5 -83t-63.5 -206v-643h-88v664q0 125 -58.5 196.5t-176.5 71.5q-119 0 -181.5 -84 t-62.5 -207v-641h-86z"/>
            <glyph unicode="n" horiz-adv-x="880"
                   d="M104 0v1010h91v-140h4q43 78 116.5 115t151.5 37q147 0 227 -85t80 -224v-713h-90v684q0 117 -54.5 183.5t-170.5 66.5q-57 0 -105.5 -20.5t-84.5 -57.5t-55 -87t-19 -107v-662h-91z"/>
            <glyph unicode="o" horiz-adv-x="858"
                   d="M82 500q0 100 7 181t28 140q37 102 119.5 151.5t195.5 49.5q92 0 155.5 -32t104.5 -85q47 -55 64.5 -157.5t17.5 -245.5q0 -92 -8 -181.5t-31 -146.5q-39 -100 -119.5 -143t-193.5 -43q-86 0 -145.5 25.5t-98.5 72.5q-53 55 -74.5 158.5t-21.5 255.5zM170 492 q0 -141 18.5 -223.5t59.5 -127.5q58 -75 177 -75h3q74 0 136.5 36.5t90.5 112.5q19 51 25 128q4 56 5 120q0 23 -1 47q0 221 -39 299q-29 66 -85 98.5t-130 32.5q-72 0 -129 -30.5t-90 -92.5q-25 -47 -32 -129t-9 -196z"/>
            <glyph unicode="p" horiz-adv-x="862"
                   d="M96 -416v1424h88v-136l4 -2q47 88 117 120t148 32q109 0 173 -43t97 -113.5t42 -164t9 -191.5t-10 -191.5t-46 -167t-101.5 -118.5t-176.5 -45q-92 0 -150.5 39t-101.5 102h-4v-545h-88zM184 500q0 -70 6.5 -144.5t31 -137t72.5 -103.5t132 -43q88 0 139 37.5t77 99 t33 140.5t7 159q0 88 -7 167t-34 137t-76 92t-133 34q-90 0 -140 -43t-73.5 -107.5t-29 -142.5t-5.5 -145z"/>
            <glyph unicode="q" horiz-adv-x="872"
                   d="M78 496q0 98 10 192t44 168t98.5 119t172.5 45q86 0 150.5 -32t112.5 -118h4v138h90v-1424h-90v572h-4q-35 -66 -97.5 -116t-171.5 -50t-172 42t-96 112.5t-42 161.5t-9 190zM172 508q0 -80 5 -158t29.5 -140.5t74 -100t139.5 -37.5q82 0 132 42t76.5 105.5t35 138 t8.5 140.5q0 70 -5 147.5t-30 143t-75 108.5t-140 43q-80 0 -129 -34t-76 -93t-36 -138t-9 -167z"/>
            <glyph unicode="r" horiz-adv-x="587"
                   d="M131 0v1010h86v-158h6q41 96 112 133t157 37q53 0 96 -12l-21 -97q-23 10 -46 13.5t-46 3.5q-117 0 -187.5 -78t-70.5 -217v-635h-86z"/>
            <glyph unicode="s" horiz-adv-x="800"
                   d="M53 170l78 43q70 -147 268 -147q100 0 170 49t70 155q0 53 -17.5 87t-49 57.5t-75.5 38t-98 28.5q-72 18 -130 40t-100 52.5t-65.5 73.5t-23.5 105q0 125 84 197.5t233 72.5q240 0 310 -166l-76 -41q-31 66 -90.5 95.5t-145.5 29.5q-111 0 -167 -53t-56 -135 q0 -47 19.5 -77t55.5 -51.5t84 -36t103 -28.5q72 -16 127 -37.5t93 -55.5t57.5 -81t19.5 -117q0 -61 -20.5 -112.5t-62.5 -89t-106.5 -59t-150.5 -21.5q-123 0 -207 43t-131 141z"/>
            <glyph unicode="t" horiz-adv-x="487"
                   d="M39 934v74h127v276h90v-276h170v-74h-170v-692q0 -74 24.5 -119t108.5 -45h55v-78h-75q-102 0 -152.5 56.5t-50.5 164.5v713h-127z"/>
            <glyph unicode="u" horiz-adv-x="897"
                   d="M111 295v715h90v-684q0 -117 62.5 -185.5t176.5 -68.5q57 0 103.5 21.5t79 58t51 87t18.5 109.5v662h86v-1010h-86v139h-6q-43 -80 -116.5 -115.5t-151.5 -35.5q-147 0 -227 85t-80 222z"/>
            <glyph unicode="v" horiz-adv-x="761"
                   d="M18 1008h97l155 -512l109 -363h6q10 37 24.5 85t29 97.5t27.5 96.5t26 84q18 55 37.5 121.5t39 134t39 134t35.5 122.5h98q-35 -104 -75.5 -236.5t-82.5 -268.5t-83 -267.5t-74 -235.5h-92q-35 104 -76 235.5t-82 267.5t-82 268t-76 237z"/>
            <glyph unicode="w" horiz-adv-x="1257"
                   d="M18 1008h95q8 -35 26.5 -106t42 -158t48 -181t46 -179t39 -149.5t23.5 -91.5h6q23 80 44.5 159t43.5 157q4 14 16.5 57t28 98.5t32.5 119t33.5 118.5t28 97t15.5 59h90q39 -137 75.5 -272.5t73.5 -272.5q23 -80 45.5 -161t44.5 -161h5l86 320q35 137 69.5 273t71.5 274 h94l-276 -1008h-91l-151 528q-4 14 -17.5 60.5t-28.5 100.5t-29.5 100.5t-18.5 60.5h-2l-92 -332l-150 -518h-90z"/>
            <glyph unicode="x" horiz-adv-x="751"
                   d="M35 0l287 518l-271 490h101l223 -426l225 426h102l-274 -492l289 -516h-101l-241 451l-240 -451h-100z"/>
            <glyph unicode="y" horiz-adv-x="749"
                   d="M12 1006h97l139 -445l127 -426h4q6 25 26.5 91.5t48 155.5t57.5 188.5t57.5 187.5t47 155.5t27.5 92.5h94q-96 -311 -190 -617.5t-193 -615.5q-29 -98 -80 -145.5t-139 -47.5h-41v78h33q66 0 98.5 44t55.5 120l55 178q-84 252 -162 502t-162 504z"/>
            <glyph unicode="z" horiz-adv-x="718" d="M51 0v78l518 852h-483v78h584v-76l-516 -852h510v-80h-613z"/>
            <glyph unicode="{" horiz-adv-x="456"
                   d="M57 573v58q45 12 72 43t41 74t19.5 92t5.5 96v240q0 109 36.5 179t126.5 70h76v-63h-51q-37 0 -58.5 -18.5t-32.5 -47t-14.5 -62.5t-3.5 -63v-274q0 -121 -39.5 -195.5t-82.5 -97.5v-2q59 -23 90.5 -103.5t31.5 -215.5v-254q0 -29 4.5 -60.5t15.5 -59.5t32.5 -46.5 t56.5 -18.5h51v-65h-76q-78 0 -121.5 57.5t-43.5 153.5v282q0 133 -25 206t-111 95z"/>
            <glyph unicode="|" horiz-adv-x="358" d="M150 -332v1798h73v-1798h-73z"/>
            <glyph unicode="}" horiz-adv-x="456"
                   d="M51 -156h51q35 0 56.5 18.5t33 46.5t15.5 59.5t4 60.5v295q0 119 34 189.5t87 90.5v2q-45 23 -83 96.5t-38 194.5v274q0 29 -4 63t-15.5 62.5t-33 47t-56.5 18.5h-51v61h58q86 0 133 -54t47 -155v-278q0 -49 4 -98.5t19.5 -91t42 -72.5t73.5 -43v-58q-88 -23 -112.5 -95 t-24.5 -206v-282q0 -104 -51.5 -157.5t-130.5 -53.5h-58v65z"/>
            <glyph unicode="~"
                   d="M61 496q39 55 91.5 86.5t111.5 31.5q43 0 86 -15t84 -33.5t79 -34t73 -15.5q41 0 69.5 20.5t65.5 67.5l59 -43q-39 -63 -86 -95t-110 -32q-37 0 -77 15.5t-82 34t-83 33.5t-80 15q-43 0 -75.5 -19t-67.5 -60z"/>
            <glyph unicode="&#xa1;" horiz-adv-x="421"
                   d="M160 1026v113h104v-113h-104zM164 -285q0 57 1 143.5t2 184.5t2 204.5t2 205t2 183.5t3 144h68q0 -59 2 -144t2 -183.5t2 -205t2 -204.5t1 -184t3 -144h-92z"/>
            <glyph unicode="&#xa2;"
                   d="M90 510q0 94 13.5 182t49 157t96 113t154.5 54v201h64v-197q102 -2 172 -47t104 -129q-18 -12 -37.5 -22.5t-37.5 -20.5q-23 59 -76 96t-125 41v-870q72 4 122 39.5t73 93.5q20 -10 39.5 -19.5t39.5 -19.5q-35 -82 -105.5 -126t-168.5 -48v-213h-64v215q-98 8 -159.5 52 t-95 113.5t-46 161t-12.5 193.5zM180 510q0 -74 7.5 -146.5t31 -134t67.5 -103.5t117 -54v862q-74 -12 -117.5 -52t-67 -98.5t-31 -130t-7.5 -143.5z"/>
            <glyph unicode="&#xa3;"
                   d="M57 641v72h142q-10 55 -25.5 107t-31 102.5t-27 98.5t-11.5 93q0 68 20.5 126t61.5 101t101.5 69t140.5 26q125 0 216 -57.5t126 -186.5q-45 -20 -82 -31q-35 104 -101.5 148.5t-158.5 44.5q-43 0 -85 -14.5t-73.5 -44t-51 -74.5t-19.5 -107q0 -47 10 -91t25.5 -92 t31 -101.5t25.5 -116.5h264v-72h-258q2 -20 2 -39.5v-40.5q-4 -139 -37 -253.5t-98 -225.5h602v-82h-705v78q72 111 112 233.5t40 274.5q0 14 -1 27.5t-3 27.5h-152z"/>
            <glyph unicode="&#xa4;" horiz-adv-x="1052"
                   d="M141 324l119 118q-39 47 -57.5 103.5t-18.5 116.5q0 123 78 223l-119 119l9 9l20 18t18.5 18.5t10.5 9.5l118 -117q100 78 224 78q117 0 221 -76l117 117l55 -57l-117 -117q41 -51 62.5 -107.5t21.5 -115.5q0 -123 -80 -226l117 -116q0 -2 -9 -10.5t-19.5 -18.5 t-18.5 -19.5t-10 -9.5l-117 117q-98 -80 -223 -80t-228 84l-118 -119l-9 10q-10 9 -20 19t-18 19zM268 664q0 -57 21.5 -107.5t58.5 -88.5t87 -59.5t108 -21.5q57 0 107 21.5t88 58.5t59.5 87t21.5 108q0 57 -21.5 107t-58.5 88t-87 59.5t-107 21.5t-107.5 -21.5 t-88.5 -58.5t-59.5 -87t-21.5 -107z"/>
            <glyph unicode="&#xa5;"
                   d="M33 1425h90q6 -18 28.5 -73.5t53.5 -131t65.5 -159.5t65.5 -159t53.5 -131t28.5 -73h4q6 16 28.5 72.5t52 131.5t64.5 159t65 159.5t52.5 131t28.5 73.5h94l-307 -749h264v-64h-287l-14 -55v-106h301v-66h-301v-385h-86v385h-291v66h291v104q-2 12 -5 28.5t-7 28.5h-279 v64h254z"/>
            <glyph unicode="&#xa6;" horiz-adv-x="358" d="M150 -332v846h69v-846h-69zM150 621v845h69v-845h-69z"/>
            <glyph unicode="&#xa7;" horiz-adv-x="880"
                   d="M102 715q0 72 39 132t103 105q-102 84 -103 203q0 125 83 204t220 79q170 0 291 -101l-55 -65q-57 47 -113.5 67.5t-124.5 20.5q-100 0 -156.5 -57.5t-56.5 -139.5q0 -39 14.5 -68.5t42 -54t66.5 -48t88 -50.5q61 -33 125 -63.5t114 -70.5t83 -93t33 -131 q0 -68 -35 -130.5t-98 -111.5q92 -98 92 -209q0 -129 -93.5 -210t-254.5 -81q-80 0 -161 31t-139 80l54 57q57 -47 118.5 -68.5t127.5 -21.5q117 0 189.5 52.5t72.5 156.5q0 90 -73 153.5t-204 123.5q-74 33 -129 65.5t-90 68t-52.5 77.5t-17.5 98zM186 719q0 -49 23.5 -86 t60.5 -64.5t80 -50t82 -41.5q43 -20 86 -40.5t78 -41.5q51 31 83 81t32 104v2q0 61 -30 103t-82 76t-125 66.5t-159 77.5q-53 -29 -91 -77t-38 -109z"/>
            <glyph unicode="&#xa8;" horiz-adv-x="843" d="M203 1223v104h100v-104h-100zM547 1223v104h98v-104h-98z"/>
            <glyph unicode="&#xa9;" horiz-adv-x="1519"
                   d="M111 698q0 154 47 286t133 229.5t208 151.5t271 54q150 0 271.5 -54t207.5 -151.5t133.5 -229.5t47.5 -286t-47.5 -284.5t-133.5 -227t-207.5 -150.5t-271.5 -54q-152 0 -273.5 54t-207.5 150.5t-132 227.5t-46 284zM186 698q0 -137 42 -255.5t119 -205.5t184.5 -137.5 t238.5 -50.5t239.5 50.5t184.5 137.5t118 205.5t42 255.5t-42 257t-119 207t-184.5 137.5t-238.5 50.5q-135 0 -242.5 -51.5t-183.5 -139.5t-117 -206.5t-41 -254.5zM514 522v334q0 113 69.5 186.5t188.5 73.5q88 0 154.5 -46t87.5 -134l-70 -25q-14 59 -59 97.5t-113 38.5 q-90 0 -137 -55.5t-47 -131.5v-342q0 -78 47 -133t137 -55q66 0 111 36.5t59 100.5l74 -25q-20 -86 -88 -134t-156 -48q-121 0 -189.5 73t-68.5 189z"/>
            <glyph unicode="&#xaa;" horiz-adv-x="577"
                   d="M37 754q0 82 50 141t165 59h188v90q0 59 -32.5 94.5t-122.5 35.5q-47 0 -87 -18.5t-69 -55.5l-63 39q35 49 89 76.5t132 27.5q51 0 93 -9t72.5 -31.5t48 -60.5t17.5 -95v-478h-78v66q-35 -41 -86 -57.5t-104 -16.5q-102 0 -157.5 53.5t-55.5 139.5zM113 754 q0 -55 38.5 -90t114.5 -35q31 0 61.5 7t56.5 23.5t41 41t15 59.5v129h-172q-70 0 -112.5 -31.5t-42.5 -103.5z"/>
            <glyph unicode="&#xab;" horiz-adv-x="763"
                   d="M102 461l230 366h90l-225 -366l225 -367h-90zM367 461l229 366h90l-225 -366l225 -367h-92z"/>
            <glyph unicode="&#xac;" d="M43 549v76h752l-2 -437h-74v361h-676z"/>
            <glyph unicode="&#xad;" horiz-adv-x="708" d="M106 510v82h508v-82h-508z"/>
            <glyph unicode="&#xae;" horiz-adv-x="1056"
                   d="M129 1006q0 94 28.5 175t82 139t127 92t165.5 34q90 0 164 -34t126 -92t81 -139t29 -175t-29 -174t-82 -138.5t-127 -91.5t-162 -33q-90 0 -164.5 33t-128 91.5t-82 138t-28.5 174.5zM186 1008q0 -84 25 -155t70 -123t109.5 -80.5t141.5 -28.5q80 0 143.5 29.5 t107.5 81.5t67.5 123t23.5 153t-24.5 152.5t-68.5 122.5t-107.5 83t-141.5 31q-80 0 -144 -31t-108 -83t-69 -122.5t-25 -152.5zM391 745v519h154q72 0 114.5 -36t42.5 -110q0 -47 -24.5 -86t-71.5 -55q27 -55 52.5 -114.5t50.5 -117.5h-64l-98 228h-98v-228h-58zM449 1020 h96q12 0 20 2q78 10 78 96q0 53 -32.5 72.5t-86.5 19.5h-75v-190z"/>
            <glyph unicode="&#xaf;" horiz-adv-x="837" d="M211 1206v84h467v-84h-467z"/>
            <glyph unicode="&#xb0;" horiz-adv-x="659"
                   d="M115 1208q0 45 17.5 86t47 70t69.5 46t85 17q47 0 87 -17t69.5 -46t47 -70t17.5 -86q0 -47 -17.5 -87t-47 -69.5t-69.5 -47t-87 -17.5q-45 0 -85 17.5t-69.5 47t-47 69.5t-17.5 87zM180 1208q0 -66 45 -111.5t109 -45.5q66 0 110.5 43.5t44.5 113.5q0 66 -45 112t-110 46 q-63 0 -108.5 -46t-45.5 -112z"/>
            <glyph unicode="&#xb1;"
                   d="M47 41v76h748v-76h-748zM47 559v76h336v352h74v-352h338v-76h-338v-354h-74v354h-336z"/>
            <glyph unicode="&#xb2;" horiz-adv-x="532"
                   d="M41 758v65l319 457q29 37 37.5 69.5t8.5 67.5q0 53 -34 92t-108 39q-53 0 -93 -33.5t-48 -97.5l-78 13q10 86 71.5 136t149.5 50q109 0 164 -54.5t55 -142.5q0 -94 -61 -180l-291 -410h344v-71h-436z"/>
            <glyph unicode="&#xb3;" horiz-adv-x="528"
                   d="M41 922l78 8q6 -53 38.5 -85t94.5 -32q86 0 118.5 51t32.5 131q0 82 -35.5 126t-101.5 44h-57v68h53q63 0 99 39t36 110q0 68 -29.5 115t-111.5 47q-53 0 -90 -30.5t-47 -83.5l-76 12q14 76 69.5 124t145.5 48q119 0 168 -63.5t49 -155.5q0 -23 -3 -50.5t-12 -54 t-28.5 -51.5t-50.5 -39q35 -16 55.5 -39.5t30.5 -52.5t12 -59.5t2 -61.5q0 -49 -12 -93t-40 -77t-73 -52.5t-108 -19.5q-78 0 -135.5 40t-71.5 137z"/>
            <glyph unicode="&#xb4;" horiz-adv-x="843" d="M360 1169l150 312l96 -37l-192 -297z"/>
            <glyph unicode="&#xb6;" horiz-adv-x="923"
                   d="M63 1106q0 70 16.5 137.5t57.5 120.5t108.5 86t170.5 33h444v-86h-108v-1563h-88v1563h-168v-1563h-86v901q-80 2 -144.5 30t-108.5 77t-69 116.5t-25 147.5z"/>
            <glyph unicode="&#xb7;" horiz-adv-x="317" d="M102 479v125h115v-125h-115z"/>
            <glyph unicode="&#xb8;" horiz-adv-x="864"
                   d="M272 -377l21 51q35 -14 68.5 -19t60.5 -5q41 0 73.5 20.5t32.5 69.5q0 41 -28.5 67.5t-77.5 26.5h-11.5t-17.5 -2l-37 29l50 162q14 0 28.5 -1.5t28.5 -1.5l-39 -129q51 -2 86 -18t55.5 -38.5t28.5 -48.5t8 -46q0 -25 -9 -50.5t-30.5 -47t-54.5 -35t-78 -13.5 q-25 0 -68 4.5t-90 24.5z"/>
            <glyph unicode="&#xb9;" horiz-adv-x="428" d="M80 1442v82l143 88h72v-854h-76v770z"/>
            <glyph unicode="&#xba;" horiz-adv-x="591"
                   d="M49 899q0 80 11.5 141.5t43.5 106.5q33 43 78 69.5t117 26.5q80 0 130 -31.5t77 -78.5q20 -35 27.5 -92.5t7.5 -139.5q0 -66 -6.5 -112t-18.5 -87q-23 -72 -83 -107.5t-138 -35.5q-76 0 -123 25.5t-74 66.5q-29 47 -39 111.5t-10 136.5zM125 895q0 -86 11 -132t30 -73 q39 -61 129 -61q104 0 145 80q27 53 27 194q0 74 -8 119t-19 68q-37 84 -143 84q-41 0 -75 -15.5t-56 -48.5q-41 -57 -41 -215z"/>
            <glyph unicode="&#xbb;" horiz-adv-x="763"
                   d="M102 94l226 367l-226 366h91l231 -366l-229 -367h-93zM369 94l225 367l-225 366h90l229 -366l-229 -367h-90z"/>
            <glyph unicode="&#xbc;" horiz-adv-x="1228"
                   d="M102 1253v82l144 88h71v-854h-75v770zM154 -35l753 1497h74l-756 -1497h-71zM629 137v64l264 653h82l-264 -647h262v246h76v-246h77v-70h-77v-137h-76v137h-344z"/>
            <glyph unicode="&#xbd;" horiz-adv-x="1228"
                   d="M82 1253v82l143 88h72v-854h-76v770zM127 -35l754 1497h73l-755 -1497h-72zM700 0v63l320 457q29 39 37 72t8 67q0 53 -34 92.5t-107 39.5q-53 0 -93 -34t-49 -98l-77 13q10 86 71.5 136t149.5 50q109 0 164 -55t55 -144q0 -92 -62 -178l-290 -411h344v-70h-437z"/>
            <glyph unicode="&#xbe;" horiz-adv-x="1228"
                   d="M49 737l78 8q6 -53 39 -84.5t94 -31.5q86 0 119 51t33 131q0 82 -36 126t-102 44h-57v68h53q63 0 99.5 38.5t36.5 110.5q0 68 -30 115t-112 47q-53 0 -90 -31t-47 -84l-76 12q14 76 69.5 124.5t145.5 48.5q119 0 168 -63.5t49 -156.5q0 -23 -3 -50t-12 -54t-28.5 -51.5 t-50.5 -38.5q35 -16 55.5 -40t30.5 -52.5t12 -59t2 -61.5q0 -49 -12 -93t-39.5 -77t-73 -52.5t-108.5 -19.5q-78 0 -135.5 40t-71.5 136zM231 -35l754 1497h74l-756 -1497h-72zM682 137v64l264 653h82l-264 -647h262v246h76v-246h78v-70h-78v-137h-76v137h-344z"/>
            <glyph unicode="&#xbf;" horiz-adv-x="806"
                   d="M121 -96q0 68 20.5 125t52 108t67.5 98.5t67.5 94.5t52 95t20.5 103v144h91v-140q0 -90 -44.5 -166.5t-96.5 -150.5t-96 -147.5t-44 -153.5q0 -45 11 -92t41 -85t79 -61.5t123 -23.5q53 0 98 20.5t79 55t53.5 80t23.5 94.5q23 -4 45 -7.5t45 -7.5q-12 -78 -43 -137 t-77 -100t-105 -62.5t-125 -21.5q-84 0 -147.5 25.5t-105.5 70.5t-63.5 107.5t-21.5 134.5zM393 887v112h107v-112h-107z"/>
            <glyph unicode="&#xc0;" horiz-adv-x="985"
                   d="M25 0l415 1425h103l418 -1425h-97q-8 31 -21.5 80t-28.5 100t-29.5 100.5t-22.5 79.5h-541l-102 -360h-94zM184 1688l72 77l272 -221l-41 -47zM242 444h497l-149 512l-96 349h-7q-115 -412 -245 -861z"/>
            <glyph unicode="&#xc1;" horiz-adv-x="985"
                   d="M25 0l415 1425h103l418 -1425h-97q-8 31 -21.5 80t-28.5 100t-29.5 100.5t-22.5 79.5h-541l-102 -360h-94zM242 444h497l-149 512l-96 349h-7q-115 -412 -245 -861zM428 1534l268 219l72 -76l-301 -186z"/>
            <glyph unicode="&#xc2;" horiz-adv-x="985"
                   d="M25 0l415 1425h103l418 -1425h-97q-8 31 -21.5 80t-28.5 100t-29.5 100.5t-22.5 79.5h-541l-102 -360h-94zM209 1538l252 215h69l242 -213l-37 -41l-243 164l-246 -164zM242 444h497l-149 512l-96 349h-7q-115 -412 -245 -861z"/>
            <glyph unicode="&#xc3;" horiz-adv-x="985"
                   d="M25 0l415 1425h103l418 -1425h-97q-8 31 -21.5 80t-28.5 100t-29.5 100.5t-22.5 79.5h-541l-102 -360h-94zM201 1593q33 57 77 90t91 33q31 0 62.5 -13t62 -28.5t61.5 -28t59 -12.5q57 0 109 82l55 -33q-33 -68 -74.5 -98.5t-89.5 -30.5q-31 0 -62.5 12.5t-62 28 t-61.5 28.5t-59 13q-31 0 -58.5 -20.5t-56.5 -54.5zM242 444h497l-149 512l-96 349h-7q-115 -412 -245 -861z"/>
            <glyph unicode="&#xc4;" horiz-adv-x="985"
                   d="M25 0l415 1425h103l418 -1425h-97q-8 31 -21.5 80t-28.5 100t-29.5 100.5t-22.5 79.5h-541l-102 -360h-94zM242 444h497l-149 512l-96 349h-7q-115 -412 -245 -861zM270 1530v104h101v-104h-101zM604 1530v104h98v-104h-98z"/>
            <glyph unicode="&#xc5;" horiz-adv-x="985"
                   d="M25 0l415 1425h103l418 -1425h-97q-8 31 -21.5 80t-28.5 100t-29.5 100.5t-22.5 79.5h-541l-102 -360h-94zM242 444h497l-149 512l-96 349h-7q-115 -412 -245 -861zM313 1647q0 37 13.5 67.5t36 54t54.5 37t66 13.5q35 0 66 -13.5t53.5 -37t35.5 -54.5t13 -67 q0 -68 -49 -118t-119 -50q-72 0 -121 50t-49 118zM367 1647q0 -47 34.5 -80t81.5 -33t81 32.5t34 80.5q0 49 -34 82.5t-81 33.5t-81.5 -33.5t-34.5 -82.5z"/>
            <glyph unicode="&#xc6;" horiz-adv-x="1581"
                   d="M6 0q186 358 372.5 712.5t375.5 712.5h772v-86h-631v-571h545v-82h-545v-600h631v-86h-723v383h-496l-203 -383h-98zM350 467h453v868h-2z"/>
            <glyph unicode="&#xc7;" horiz-adv-x="935"
                   d="M102 393v641q0 88 29 163t81 127t127 82t167 30q137 0 240.5 -69t136.5 -202l-88 -30q-23 104 -100 159.5t-189 55.5q-147 0 -230 -89.5t-83 -226.5v-647q0 -68 21.5 -126t62 -101t99 -66.5t130.5 -23.5q111 0 188.5 57t104.5 170l86 -27q-14 -68 -47 -120t-80 -86.5 t-106.5 -54t-123.5 -21.5q-8 -23 -14 -47.5t-14 -49.5q51 -2 86 -18t55.5 -38.5t28.5 -48.5t8 -46q0 -25 -9.5 -50.5t-31 -47t-54 -35t-77.5 -13.5q-25 0 -68 4.5t-90 24.5l21 51q35 -14 68.5 -19t60.5 -5q41 0 73.5 20.5t32.5 69.5q0 41 -28.5 67.5t-77.5 26.5h-11.5 t-17.5 -2l-37 29l37 127q-172 10 -269.5 120.5t-97.5 284.5z"/>
            <glyph unicode="&#xc8;" horiz-adv-x="905"
                   d="M135 0v1425h723v-86h-633v-571h547v-82h-547v-598h633v-88h-723zM219 1688l72 77l272 -221l-41 -47z"/>
            <glyph unicode="&#xc9;" horiz-adv-x="905"
                   d="M135 0v1425h723v-86h-633v-571h547v-82h-547v-598h633v-88h-723zM369 1534l268 219l72 -76l-301 -186z"/>
            <glyph unicode="&#xca;" horiz-adv-x="905"
                   d="M135 0v1425h723v-86h-633v-571h547v-82h-547v-598h633v-88h-723zM209 1538l252 215h69l242 -213l-37 -41l-243 164l-246 -164z"/>
            <glyph unicode="&#xcb;" horiz-adv-x="905"
                   d="M135 0v1425h723v-86h-633v-571h547v-82h-547v-598h633v-88h-723zM279 1571v104h100v-104h-100zM623 1571v104h98v-104h-98z"/>
            <glyph unicode="&#xcc;" horiz-adv-x="397" d="M-94 1688l71 77l273 -221l-41 -47zM152 0v1425h92v-1425h-92z"/>
            <glyph unicode="&#xcd;" horiz-adv-x="397" d="M147 1534l269 219l71 -76l-301 -186zM152 0v1425h92v-1425h-92z"/>
            <glyph unicode="&#xce;" horiz-adv-x="397"
                   d="M-86 1538l252 215h70l241 -213l-37 -41l-243 164l-246 -164zM152 0v1425h92v-1425h-92z"/>
            <glyph unicode="&#xcf;" horiz-adv-x="397"
                   d="M-18 1571v104h100v-104h-100zM152 0v1425h92v-1425h-92zM326 1571v104h98v-104h-98z"/>
            <glyph unicode="&#xd0;" horiz-adv-x="1036"
                   d="M16 709v73h117v643h397q147 0 237.5 -56t133.5 -167q25 -72 29 -196.5t4 -280.5v-154q0 -111 -4 -195.5t-27 -144.5q-27 -68 -67.5 -112.5t-94 -71.5t-117 -37t-132.5 -10h-359v709h-117zM225 84h281q231 0 303 170q16 37 24.5 91t8.5 101v478q0 70 -5.5 124t-21.5 111 q-25 84 -103.5 133t-205.5 49h-281v-559h289v-73h-289v-625z"/>
            <glyph unicode="&#xd1;" horiz-adv-x="1120"
                   d="M133 0v1425h90l412 -747l258 -473h6v1220h90v-1425h-92q-102 188 -204.5 375.5t-207.5 378.5q-66 117 -129 234.5t-129 236.5h-2v-1225h-92zM272 1571q33 57 77 90t91 33q31 0 63 -13.5t62.5 -29t61 -27.5t59.5 -12q57 0 109 82l55 -33q-33 -68 -75 -98.5t-89 -30.5 q-31 0 -62.5 12t-62.5 27.5t-61.5 29t-59.5 13.5q-31 0 -58.5 -20.5t-55.5 -55.5z"/>
            <glyph unicode="&#xd2;" horiz-adv-x="993"
                   d="M90 403v633q0 82 26.5 156t79 127t128 85t174.5 32q92 0 165.5 -30t126 -83t81 -127t28.5 -160v-641q0 -88 -28.5 -162.5t-81 -130t-127 -86t-164.5 -30.5q-98 0 -174 31.5t-128.5 87t-79 132t-26.5 166.5zM182 399q0 -145 83 -236t233 -91q70 0 126 25.5t97 68.5 t63.5 101.5t22.5 123.5v641q0 63 -20.5 120.5t-60.5 101.5t-97.5 70t-130.5 26q-76 0 -135.5 -26t-99.5 -69t-60.5 -100t-20.5 -123v-633zM262 1688l72 77l272 -221l-41 -47z"/>
            <glyph unicode="&#xd3;" horiz-adv-x="993"
                   d="M90 403v633q0 82 26.5 156t79 127t128 85t174.5 32q92 0 165.5 -30t126 -83t81 -127t28.5 -160v-641q0 -88 -28.5 -162.5t-81 -130t-127 -86t-164.5 -30.5q-98 0 -174 31.5t-128.5 87t-79 132t-26.5 166.5zM182 399q0 -145 83 -236t233 -91q70 0 126 25.5t97 68.5 t63.5 101.5t22.5 123.5v641q0 63 -20.5 120.5t-60.5 101.5t-97.5 70t-130.5 26q-76 0 -135.5 -26t-99.5 -69t-60.5 -100t-20.5 -123v-633zM369 1534l268 219l72 -76l-301 -186z"/>
            <glyph unicode="&#xd4;" horiz-adv-x="993"
                   d="M90 403v633q0 82 26.5 156t79 127t128 85t174.5 32q92 0 165.5 -30t126 -83t81 -127t28.5 -160v-641q0 -88 -28.5 -162.5t-81 -130t-127 -86t-164.5 -30.5q-98 0 -174 31.5t-128.5 87t-79 132t-26.5 166.5zM182 399q0 -145 83 -236t233 -91q70 0 126 25.5t97 68.5 t63.5 101.5t22.5 123.5v641q0 63 -20.5 120.5t-60.5 101.5t-97.5 70t-130.5 26q-76 0 -135.5 -26t-99.5 -69t-60.5 -100t-20.5 -123v-633zM209 1538l252 215h69l242 -213l-37 -41l-243 164l-246 -164z"/>
            <glyph unicode="&#xd5;" horiz-adv-x="993"
                   d="M90 403v633q0 82 26.5 156t79 127t128 85t174.5 32q92 0 165.5 -30t126 -83t81 -127t28.5 -160v-641q0 -88 -28.5 -162.5t-81 -130t-127 -86t-164.5 -30.5q-98 0 -174 31.5t-128.5 87t-79 132t-26.5 166.5zM182 399q0 -145 83 -236t233 -91q70 0 126 25.5t97 68.5 t63.5 101.5t22.5 123.5v641q0 63 -20.5 120.5t-60.5 101.5t-97.5 70t-130.5 26q-76 0 -135.5 -26t-99.5 -69t-60.5 -100t-20.5 -123v-633zM205 1593q33 57 77 90t91 33q31 0 62.5 -13t62 -28.5t61.5 -28t59 -12.5q57 0 109 82l55 -33q-33 -68 -74.5 -98.5t-89.5 -30.5 q-31 0 -62.5 12.5t-62 28t-61.5 28.5t-59 13q-31 0 -58.5 -20.5t-56.5 -54.5z"/>
            <glyph unicode="&#xd6;" horiz-adv-x="993"
                   d="M90 403v633q0 82 26.5 156t79 127t128 85t174.5 32q92 0 165.5 -30t126 -83t81 -127t28.5 -160v-641q0 -88 -28.5 -162.5t-81 -130t-127 -86t-164.5 -30.5q-98 0 -174 31.5t-128.5 87t-79 132t-26.5 166.5zM182 399q0 -145 83 -236t233 -91q70 0 126 25.5t97 68.5 t63.5 101.5t22.5 123.5v641q0 63 -20.5 120.5t-60.5 101.5t-97.5 70t-130.5 26q-76 0 -135.5 -26t-99.5 -69t-60.5 -100t-20.5 -123v-633zM266 1530v104h101v-104h-101zM600 1530v104h98v-104h-98z"/>
            <glyph unicode="&#xd7;" horiz-adv-x="897"
                   d="M98 281l303 299l-286 286l53 54l285 -287l299 299l51 -51l-299 -299l293 -291l-54 -53l-290 290l-301 -301z"/>
            <glyph unicode="&#xd8;" horiz-adv-x="993"
                   d="M80 14l76 140q-66 102 -66 249v633q0 82 26.5 156t79 127t128 85t174.5 32q92 0 164.5 -30t125.5 -83q16 29 32 59.5t32 59.5l53 -31q-18 -35 -37.5 -68.5t-38.5 -68.5q70 -100 70 -238v-641q0 -88 -28.5 -162.5t-81 -130t-127 -86t-164.5 -30.5q-100 0 -175 31.5 t-128 86.5l-66 -118q-12 8 -25.5 14t-23.5 14zM182 399q0 -86 27 -147l532 985q-41 51 -101 82t-142 31q-76 0 -135.5 -26t-99.5 -69t-60.5 -100t-20.5 -123v-633zM242 193q41 -57 105.5 -89t150.5 -32q70 0 126 25.5t97 68.5t63.5 101.5t22.5 123.5v641q0 76 -31 142z"/>
            <glyph unicode="&#xd9;" horiz-adv-x="1024"
                   d="M109 385v1040h90v-1034q0 -72 24.5 -130t66.5 -99t99 -64.5t123 -23.5q63 0 120.5 20.5t99.5 60.5t66.5 97t24.5 133v1040h92v-1046q0 -94 -31.5 -167t-87 -123t-129 -75.5t-155.5 -25.5q-84 0 -157.5 26.5t-128 77.5t-86 125t-31.5 168zM266 1688l72 77l272 -221 l-41 -47z"/>
            <glyph unicode="&#xda;" horiz-adv-x="1024"
                   d="M109 385v1040h90v-1034q0 -72 24.5 -130t66.5 -99t99 -64.5t123 -23.5q63 0 120.5 20.5t99.5 60.5t66.5 97t24.5 133v1040h92v-1046q0 -94 -31.5 -167t-87 -123t-129 -75.5t-155.5 -25.5q-84 0 -157.5 26.5t-128 77.5t-86 125t-31.5 168zM395 1534l269 219l71 -76 l-301 -186z"/>
            <glyph unicode="&#xdb;" horiz-adv-x="1024"
                   d="M109 385v1040h90v-1034q0 -72 24.5 -130t66.5 -99t99 -64.5t123 -23.5q63 0 120.5 20.5t99.5 60.5t66.5 97t24.5 133v1040h92v-1046q0 -94 -31.5 -167t-87 -123t-129 -75.5t-155.5 -25.5q-84 0 -157.5 26.5t-128 77.5t-86 125t-31.5 168zM221 1538l252 215h70l241 -213 l-36 -41l-244 164l-246 -164z"/>
            <glyph unicode="&#xdc;" horiz-adv-x="1024"
                   d="M109 385v1040h90v-1034q0 -72 24.5 -130t66.5 -99t99 -64.5t123 -23.5q63 0 120.5 20.5t99.5 60.5t66.5 97t24.5 133v1040h92v-1046q0 -94 -31.5 -167t-87 -123t-129 -75.5t-155.5 -25.5q-84 0 -157.5 26.5t-128 77.5t-86 125t-31.5 168zM301 1530v104h100v-104h-100z M635 1530v104h98v-104h-98z"/>
            <glyph unicode="&#xdd;" horiz-adv-x="845"
                   d="M14 1425h97l184 -432l127 -295l123 297q10 25 36.5 85.5t55.5 129t55.5 130t36.5 85.5h94l-360 -831v-594h-88v594zM303 1534l268 219l72 -76l-301 -186z"/>
            <glyph unicode="&#xde;" horiz-adv-x="964"
                   d="M135 0v1446h92l-2 -309h303q193 0 296.5 -101.5t103.5 -306.5q0 -82 -21.5 -155.5t-68.5 -130t-122 -90.5t-181 -34h-310l2 -319h-92zM225 403h301q84 0 143.5 25t96.5 69t53.5 104t16.5 130q0 152 -78 236t-234 84h-299v-648z"/>
            <glyph unicode="&#xdf;" horiz-adv-x="886"
                   d="M111 0v1102q0 174 77.5 277.5t249.5 103.5q78 0 136.5 -24.5t98.5 -68.5t60.5 -103.5t20.5 -129.5q0 -41 -7.5 -85t-24.5 -84t-47 -71.5t-73 -50.5v-4q59 -18 96 -54t57.5 -86t28 -112.5t7.5 -132.5q0 -88 -10.5 -175t-43 -155.5t-92 -110.5t-160.5 -42h-67v74h45 q88 0 136 39.5t69.5 102t25.5 137.5t4 147q0 63 -10 121.5t-36.5 103.5t-73 72.5t-117.5 27.5v80q55 0 94 21.5t63.5 56.5t35 79t10.5 89q0 51 -13.5 97t-41 82t-71.5 57.5t-106 21.5q-74 0 -120 -28.5t-71.5 -73t-33.5 -97.5t-8 -104v-1100h-88z"/>
            <glyph unicode="&#xe0;" horiz-adv-x="837"
                   d="M63 270q0 61 18.5 117.5t57.5 97.5t99.5 65.5t144.5 24.5h268v156q0 96 -55 151.5t-172 55.5q-80 0 -142.5 -26.5t-99.5 -77.5q-10 6 -34.5 23t-34.5 24q49 66 122.5 103.5t188.5 37.5q68 0 126 -13.5t100 -47t66.5 -90t24.5 -142.5v-729h-90v96h-6q-47 -68 -125 -89 t-158 -21q-141 0 -220 77.5t-79 206.5zM150 276q0 -92 60 -150t177 -58q47 0 94 10t85 34.5t61.5 63.5t23.5 96v224h-264q-102 0 -169.5 -52.5t-67.5 -167.5zM256 1444l98 37l148 -312l-53 -22z"/>
            <glyph unicode="&#xe1;" horiz-adv-x="837"
                   d="M63 270q0 61 18.5 117.5t57.5 97.5t99.5 65.5t144.5 24.5h268v156q0 96 -55 151.5t-172 55.5q-80 0 -142.5 -26.5t-99.5 -77.5q-10 6 -34.5 23t-34.5 24q49 66 122.5 103.5t188.5 37.5q68 0 126 -13.5t100 -47t66.5 -90t24.5 -142.5v-729h-90v96h-6q-47 -68 -125 -89 t-158 -21q-141 0 -220 77.5t-79 206.5zM150 276q0 -92 60 -150t177 -58q47 0 94 10t85 34.5t61.5 63.5t23.5 96v224h-264q-102 0 -169.5 -52.5t-67.5 -167.5zM406 1169l149 312l96 -37l-192 -297z"/>
            <glyph unicode="&#xe2;" horiz-adv-x="837"
                   d="M63 270q0 61 18.5 117.5t57.5 97.5t99.5 65.5t144.5 24.5h268v156q0 96 -55 151.5t-172 55.5q-80 0 -142.5 -26.5t-99.5 -77.5q-10 6 -34.5 23t-34.5 24q49 66 122.5 103.5t188.5 37.5q68 0 126 -13.5t100 -47t66.5 -90t24.5 -142.5v-729h-90v96h-6q-47 -68 -125 -89 t-158 -21q-141 0 -220 77.5t-79 206.5zM141 1171l254 252h70l242 -247l-41 -39l-240 196l-242 -198zM150 276q0 -92 60 -150t177 -58q47 0 94 10t85 34.5t61.5 63.5t23.5 96v224h-264q-102 0 -169.5 -52.5t-67.5 -167.5z"/>
            <glyph unicode="&#xe3;" horiz-adv-x="837"
                   d="M63 270q0 61 18.5 117.5t57.5 97.5t99.5 65.5t144.5 24.5h268v156q0 96 -55 151.5t-172 55.5q-80 0 -142.5 -26.5t-99.5 -77.5q-10 6 -34.5 23t-34.5 24q49 66 122.5 103.5t188.5 37.5q68 0 126 -13.5t100 -47t66.5 -90t24.5 -142.5v-729h-90v96h-6q-47 -68 -125 -89 t-158 -21q-141 0 -220 77.5t-79 206.5zM139 1245q33 57 77 90t91 33q31 0 62.5 -13.5t62.5 -28.5t61.5 -27.5t59.5 -12.5q57 0 109 82l55 -33q-33 -68 -75 -98.5t-89 -30.5q-31 0 -62.5 12.5t-62.5 28t-61.5 28.5t-59.5 13q-31 0 -58.5 -20.5t-55.5 -55.5zM150 276 q0 -92 60 -150t177 -58q47 0 94 10t85 34.5t61.5 63.5t23.5 96v224h-264q-102 0 -169.5 -52.5t-67.5 -167.5z"/>
            <glyph unicode="&#xe4;" horiz-adv-x="837"
                   d="M63 270q0 61 18.5 117.5t57.5 97.5t99.5 65.5t144.5 24.5h268v156q0 96 -55 151.5t-172 55.5q-80 0 -142.5 -26.5t-99.5 -77.5q-10 6 -34.5 23t-34.5 24q49 66 122.5 103.5t188.5 37.5q68 0 126 -13.5t100 -47t66.5 -90t24.5 -142.5v-729h-90v96h-6q-47 -68 -125 -89 t-158 -21q-141 0 -220 77.5t-79 206.5zM150 276q0 -92 60 -150t177 -58q47 0 94 10t85 34.5t61.5 63.5t23.5 96v224h-264q-102 0 -169.5 -52.5t-67.5 -167.5zM205 1223v104h100v-104h-100zM549 1223v104h98v-104h-98z"/>
            <glyph unicode="&#xe5;" horiz-adv-x="837"
                   d="M63 270q0 61 18.5 117.5t57.5 97.5t99.5 65.5t144.5 24.5h268v156q0 96 -55 151.5t-172 55.5q-80 0 -142.5 -26.5t-99.5 -77.5q-10 6 -34.5 23t-34.5 24q49 66 122.5 103.5t188.5 37.5q68 0 126 -13.5t100 -47t66.5 -90t24.5 -142.5v-729h-90v96h-6q-47 -68 -125 -89 t-158 -21q-141 0 -220 77.5t-79 206.5zM150 276q0 -92 60 -150t177 -58q47 0 94 10t85 34.5t61.5 63.5t23.5 96v224h-264q-102 0 -169.5 -52.5t-67.5 -167.5zM262 1303q0 37 13.5 67.5t36 54t54 37t66.5 13.5t65.5 -13.5t53 -37t36 -54.5t13.5 -67q0 -68 -49 -118t-119 -50 q-72 0 -121 50t-49 118zM315 1303q0 -47 35 -80t82 -33t81 32.5t34 80.5q0 49 -34 82.5t-81 33.5t-82 -33.5t-35 -82.5z"/>
            <glyph unicode="&#xe6;" horiz-adv-x="1411"
                   d="M61 268q0 152 88.5 229.5t247.5 77.5h252v156q0 94 -53 150.5t-176 56.5q-68 0 -133.5 -24.5t-106.5 -79.5l-65 51q53 72 132 103.5t171 31.5q109 0 188.5 -34t112.5 -126q43 86 116.5 123t163.5 37q100 0 167 -35t106 -93t54 -136t15 -166v-94h-600q0 -74 8.5 -151 t36 -139.5t82 -102.5t144.5 -40q76 0 131 37t86 93l71 -43q-41 -82 -115.5 -122t-166.5 -40q-104 0 -190.5 43t-127.5 147q-53 -104 -137 -147t-203 -43q-141 0 -220 75.5t-79 204.5zM147 272q0 -92 59.5 -148t180.5 -56q63 0 112.5 19t82 52t50 76t17.5 90v191h-260 q-43 0 -86 -9.5t-78 -35t-56.5 -68.5t-21.5 -111zM743 571h508q0 68 -10 133.5t-36.5 117.5t-76 84t-124.5 32q-78 0 -127.5 -30.5t-79 -82t-41 -118t-13.5 -136.5z"/>
            <glyph unicode="&#xe7;" horiz-adv-x="761"
                   d="M70 510q0 102 15 194.5t56 163t113 111.5t182 41q106 0 179 -45t108 -131q-20 -12 -38.5 -22.5t-39.5 -20.5q-23 61 -77 99t-132 38q-92 0 -146 -37t-84 -97.5t-39 -137t-9 -156.5q0 -78 9 -157t37.5 -142.5t83 -103t144.5 -39.5q78 0 132 36.5t77 96.5q18 -10 38 -19.5 t40 -19.5q-35 -80 -102.5 -124t-163.5 -50q-8 -23 -14.5 -47.5t-14.5 -49.5q51 -2 86 -18t55.5 -38.5t28.5 -48.5t8 -46q0 -25 -9 -50.5t-30.5 -47t-54.5 -35t-78 -13.5q-25 0 -68 4.5t-90 24.5l21 51q35 -14 68.5 -19t60.5 -5q41 0 73.5 20.5t32.5 69.5q0 41 -28.5 67.5 t-77.5 26.5h-11.5t-17.5 -2l-37 29l37 129q-102 6 -165.5 49t-98.5 113.5t-47 162t-12 195.5z"/>
            <glyph unicode="&#xe8;" horiz-adv-x="835"
                   d="M74 520q0 94 14 185.5t53 161t107.5 112.5t177.5 43q100 0 165.5 -35t104.5 -95.5t54.5 -139t15.5 -166.5v-94h-602q0 -100 12 -179.5t43 -134.5t84 -83.5t135 -28.5q74 0 135.5 38.5t83.5 98.5l78 -37q-35 -86 -114.5 -133t-178.5 -47q-113 0 -184.5 35.5t-112.5 104.5 t-56 168t-15 226zM166 565h508v6q0 74 -9.5 139.5t-37 117t-75.5 81t-126 29.5t-127 -30.5t-79 -82t-41 -119t-13 -141.5zM256 1444l98 37l148 -312l-53 -22z"/>
            <glyph unicode="&#xe9;" horiz-adv-x="835"
                   d="M74 520q0 94 14 185.5t53 161t107.5 112.5t177.5 43q100 0 165.5 -35t104.5 -95.5t54.5 -139t15.5 -166.5v-94h-602q0 -100 12 -179.5t43 -134.5t84 -83.5t135 -28.5q74 0 135.5 38.5t83.5 98.5l78 -37q-35 -86 -114.5 -133t-178.5 -47q-113 0 -184.5 35.5t-112.5 104.5 t-56 168t-15 226zM166 565h508v6q0 74 -9.5 139.5t-37 117t-75.5 81t-126 29.5t-127 -30.5t-79 -82t-41 -119t-13 -141.5zM365 1169l149 312l96 -37l-192 -297z"/>
            <glyph unicode="&#xea;" horiz-adv-x="835"
                   d="M74 520q0 94 14 185.5t53 161t107.5 112.5t177.5 43q100 0 165.5 -35t104.5 -95.5t54.5 -139t15.5 -166.5v-94h-602q0 -100 12 -179.5t43 -134.5t84 -83.5t135 -28.5q74 0 135.5 38.5t83.5 98.5l78 -37q-35 -86 -114.5 -133t-178.5 -47q-113 0 -184.5 35.5t-112.5 104.5 t-56 168t-15 226zM152 1171l254 252h69l242 -247l-41 -39l-240 196l-241 -198zM166 565h508v6q0 74 -9.5 139.5t-37 117t-75.5 81t-126 29.5t-127 -30.5t-79 -82t-41 -119t-13 -141.5z"/>
            <glyph unicode="&#xeb;" horiz-adv-x="835"
                   d="M74 520q0 94 14 185.5t53 161t107.5 112.5t177.5 43q100 0 165.5 -35t104.5 -95.5t54.5 -139t15.5 -166.5v-94h-602q0 -100 12 -179.5t43 -134.5t84 -83.5t135 -28.5q74 0 135.5 38.5t83.5 98.5l78 -37q-35 -86 -114.5 -133t-178.5 -47q-113 0 -184.5 35.5t-112.5 104.5 t-56 168t-15 226zM166 565h508v6q0 74 -9.5 139.5t-37 117t-75.5 81t-126 29.5t-127 -30.5t-79 -82t-41 -119t-13 -141.5zM203 1223v104h100v-104h-100zM547 1223v104h98v-104h-98z"/>
            <glyph unicode="&#xec;" horiz-adv-x="362" d="M-37 1444l98 37l148 -312l-53 -22zM137 0v1010h88v-1010h-88z"/>
            <glyph unicode="&#xed;" horiz-adv-x="362" d="M137 0v1010h88v-1010h-88zM141 1169l150 312l96 -37l-192 -297z"/>
            <glyph unicode="&#xee;" horiz-adv-x="483"
                   d="M-41 1171l254 252h70l241 -247l-41 -39l-239 196l-242 -198zM197 0v1010h88v-1010h-88z"/>
            <glyph unicode="&#xef;" horiz-adv-x="401"
                   d="M-20 1223v104h100v-104h-100zM156 0v1010h88v-1010h-88zM324 1223v104h98v-104h-98z"/>
            <glyph unicode="&#xf0;" horiz-adv-x="870"
                   d="M78 459q0 100 7 168.5t30 128.5q35 92 116.5 143t192.5 51q76 0 148.5 -36.5t113.5 -108.5h6q0 47 -4 100t-13 105.5t-24.5 98.5t-36.5 81q-39 -29 -78.5 -57.5t-78.5 -57.5l-37 51q41 29 80 58.5t80 58.5q-47 59 -120 95t-163 48q6 41 14 76q70 -6 124 -22.5t94 -39 t70 -50t52 -54.5l137 101q10 -12 20.5 -24.5t20.5 -24.5l-143 -105q33 -53 51.5 -122.5t26.5 -147.5q4 -53 8 -129t6 -185v-104q0 -80 -3 -139.5t-10 -105.5t-18.5 -83t-25.5 -69q-41 -86 -113.5 -128t-189.5 -42q-137 0 -213 57q-72 55 -99.5 150.5t-27.5 263.5zM166 461 q0 -78 5 -134.5t17.5 -97.5t32 -69.5t45.5 -48.5q59 -47 156 -48q76 0 135 33t88 105q23 55 32 123.5t9 160.5q0 109 -12 165.5t-29 90.5q-31 61 -89 95t-132 34q-66 0 -121 -27.5t-90 -88.5q-25 -47 -35 -111.5t-12 -181.5z"/>
            <glyph unicode="&#xf1;" horiz-adv-x="880"
                   d="M104 0v1010h91v-140h4q43 78 116.5 115t151.5 37q147 0 227 -85t80 -224v-713h-90v684q0 117 -54.5 183.5t-170.5 66.5q-57 0 -105.5 -20.5t-84.5 -57.5t-55 -87t-19 -107v-662h-91zM127 1245q33 57 77 90t91 33q31 0 62.5 -13.5t62.5 -28.5t61.5 -27.5t59.5 -12.5 q57 0 108 82l56 -33q-33 -68 -75 -98.5t-89 -30.5q-31 0 -63 12.5t-62.5 28t-61 28.5t-59.5 13q-31 0 -58.5 -20.5t-56.5 -55.5z"/>
            <glyph unicode="&#xf2;" horiz-adv-x="858"
                   d="M82 500q0 100 7 181t28 140q37 102 119.5 151.5t195.5 49.5q92 0 155.5 -32t104.5 -85q47 -55 64.5 -157.5t17.5 -245.5q0 -92 -8 -181.5t-31 -146.5q-39 -100 -119.5 -143t-193.5 -43q-86 0 -145.5 25.5t-98.5 72.5q-53 55 -74.5 158.5t-21.5 255.5zM170 492 q0 -141 18.5 -223.5t59.5 -127.5q59 -76 180 -75q74 0 136.5 36.5t90.5 112.5q20 51 25.5 128t3.5 167q0 221 -39 299q-29 66 -85 98.5t-130 32.5q-72 0 -129 -30.5t-90 -92.5q-25 -47 -32 -129t-9 -196zM233 1444l99 37l147 -312l-53 -22z"/>
            <glyph unicode="&#xf3;" horiz-adv-x="858"
                   d="M82 500q0 100 7 181t28 140q37 102 119.5 151.5t195.5 49.5q92 0 155.5 -32t104.5 -85q47 -55 64.5 -157.5t17.5 -245.5q0 -92 -8 -181.5t-31 -146.5q-39 -100 -119.5 -143t-193.5 -43q-86 0 -145.5 25.5t-98.5 72.5q-53 55 -74.5 158.5t-21.5 255.5zM170 492 q0 -141 18.5 -223.5t59.5 -127.5q59 -76 180 -75q74 0 136.5 36.5t90.5 112.5q20 51 25.5 128t3.5 167q0 221 -39 299q-29 66 -85 98.5t-130 32.5q-72 0 -129 -30.5t-90 -92.5q-25 -47 -32 -129t-9 -196zM375 1169l149 312l97 -37l-193 -297z"/>
            <glyph unicode="&#xf4;" horiz-adv-x="858"
                   d="M82 500q0 100 7 181t28 140q37 102 119.5 151.5t195.5 49.5q92 0 155.5 -32t104.5 -85q47 -55 64.5 -157.5t17.5 -245.5q0 -92 -8 -181.5t-31 -146.5q-39 -100 -119.5 -143t-193.5 -43q-86 0 -145.5 25.5t-98.5 72.5q-53 55 -74.5 158.5t-21.5 255.5zM150 1171l253 252 h70l242 -247l-41 -39l-240 196l-241 -198zM170 492q0 -141 18.5 -223.5t59.5 -127.5q59 -76 180 -75q74 0 136.5 36.5t90.5 112.5q20 51 25.5 128t3.5 167q0 221 -39 299q-29 66 -85 98.5t-130 32.5q-72 0 -129 -30.5t-90 -92.5q-25 -47 -32 -129t-9 -196z"/>
            <glyph unicode="&#xf5;" horiz-adv-x="858"
                   d="M84 500q0 100 7 181t28 140q37 102 119.5 151.5t195.5 49.5q92 0 155.5 -32t104.5 -85q47 -55 64.5 -157.5t17.5 -245.5q0 -92 -8 -181.5t-31 -146.5q-39 -100 -119.5 -143t-193.5 -43q-86 0 -145.5 25.5t-98.5 72.5q-53 55 -74.5 158.5t-21.5 255.5zM145 1245 q33 57 77 90t91 33q31 0 63 -13.5t62.5 -28.5t61 -27.5t59.5 -12.5q57 0 109 82l55 -33q-33 -68 -75 -98.5t-89 -30.5q-31 0 -62.5 12.5t-62.5 28t-61.5 28.5t-59.5 13q-31 0 -58.5 -20.5t-55.5 -55.5zM172 492q0 -141 18.5 -223.5t59.5 -127.5q59 -76 180 -75 q74 0 136.5 36.5t90.5 112.5q20 51 25.5 128t3.5 167q0 221 -39 299q-29 66 -85 98.5t-130 32.5q-72 0 -129 -30.5t-90 -92.5q-25 -47 -32 -129t-9 -196z"/>
            <glyph unicode="&#xf6;" horiz-adv-x="858"
                   d="M82 500q0 100 7 181t28 140q37 102 119.5 151.5t195.5 49.5q92 0 155.5 -32t104.5 -85q47 -55 64.5 -157.5t17.5 -245.5q0 -92 -8 -181.5t-31 -146.5q-39 -100 -119.5 -143t-193.5 -43q-86 0 -145.5 25.5t-98.5 72.5q-53 55 -74.5 158.5t-21.5 255.5zM170 492 q0 -141 18.5 -223.5t59.5 -127.5q59 -76 180 -75q74 0 136.5 36.5t90.5 112.5q20 51 25.5 128t3.5 167q0 221 -39 299q-29 66 -85 98.5t-130 32.5q-72 0 -129 -30.5t-90 -92.5q-25 -47 -32 -129t-9 -196zM209 1223v104h100v-104h-100zM553 1223v104h98v-104h-98z"/>
            <glyph unicode="&#xf7;"
                   d="M43 549v76h754v-76h-754zM348 256q0 33 22.5 54.5t53.5 21.5q29 0 52.5 -21.5t23.5 -54.5q0 -31 -22.5 -53.5t-53.5 -22.5q-33 0 -54.5 22.5t-21.5 53.5zM348 909q0 33 22.5 53.5t53.5 20.5q29 0 52.5 -20.5t23.5 -53.5q0 -31 -22.5 -53t-53.5 -22q-33 0 -54.5 22.5 t-21.5 52.5z"/>
            <glyph unicode="&#xf8;" horiz-adv-x="858"
                   d="M82 23q16 27 32.5 51t32.5 51q-37 59 -51 152.5t-14 222.5q0 100 7 181t28 140q37 102 119.5 151.5t195.5 49.5q78 0 135.5 -23.5t98.5 -64.5q14 23 28.5 46.5t30.5 45.5q12 -8 24.5 -15t24.5 -18l-69 -106q41 -57 55 -154.5t14 -230.5q0 -92 -8 -181.5t-31 -146.5 q-39 -100 -119.5 -143t-193.5 -43q-84 0 -141.5 23.5t-96.5 66.5q-14 -23 -28.5 -44.5t-28.5 -43.5q-10 8 -22.5 15t-22.5 18zM170 492q0 -186 33 -279q104 162 206.5 322.5t206.5 322.5q-65 82 -186 82q-72 0 -129 -30.5t-90 -92.5q-25 -47 -32 -129t-9 -196zM236 156 l12 -15q59 -76 180 -75q74 0 136.5 36.5t90.5 112.5q20 51 25.5 128t3.5 167q0 211 -35 291q-104 -162 -206.5 -323t-206.5 -322z"/>
            <glyph unicode="&#xf9;" horiz-adv-x="897"
                   d="M111 295v715h90v-684q0 -117 62.5 -185.5t176.5 -68.5q57 0 103.5 21.5t79 58t51 87t18.5 109.5v662h86v-1010h-86v139h-6q-43 -80 -116.5 -115.5t-151.5 -35.5q-147 0 -227 85t-80 222zM256 1444l98 37l148 -312l-53 -22z"/>
            <glyph unicode="&#xfa;" horiz-adv-x="897"
                   d="M111 295v715h90v-684q0 -117 62.5 -185.5t176.5 -68.5q57 0 103.5 21.5t79 58t51 87t18.5 109.5v662h86v-1010h-86v139h-6q-43 -80 -116.5 -115.5t-151.5 -35.5q-147 0 -227 85t-80 222zM385 1169l150 312l96 -37l-193 -297z"/>
            <glyph unicode="&#xfb;" horiz-adv-x="897"
                   d="M111 295v715h90v-684q0 -117 62.5 -185.5t176.5 -68.5q57 0 103.5 21.5t79 58t51 87t18.5 109.5v662h86v-1010h-86v139h-6q-43 -80 -116.5 -115.5t-151.5 -35.5q-147 0 -227 85t-80 222zM162 1171l254 252h69l242 -247l-41 -39l-240 196l-241 -198z"/>
            <glyph unicode="&#xfc;" horiz-adv-x="897"
                   d="M111 295v715h90v-684q0 -117 62.5 -185.5t176.5 -68.5q57 0 103.5 21.5t79 58t51 87t18.5 109.5v662h86v-1010h-86v139h-6q-43 -80 -116.5 -115.5t-151.5 -35.5q-147 0 -227 85t-80 222zM215 1223v104h100v-104h-100zM559 1223v104h98v-104h-98z"/>
            <glyph unicode="&#xfd;" horiz-adv-x="749"
                   d="M12 1006h97l139 -445l127 -426h4q6 25 26.5 91.5t48 155.5t57.5 188.5t57.5 187.5t47 155.5t27.5 92.5h94q-96 -311 -190 -617.5t-193 -615.5q-29 -98 -80 -145.5t-139 -47.5h-41v78h33q66 0 98.5 44t55.5 120l55 178q-84 252 -162 502t-162 504zM317 1169l150 312 l96 -37l-192 -297z"/>
            <glyph unicode="&#xfe;" horiz-adv-x="862"
                   d="M96 -416v1843h88v-555l4 -2q47 88 117 120t148 32q109 0 173 -43t97 -113.5t42 -164t9 -191.5t-10 -191.5t-46 -167t-101.5 -118.5t-176.5 -45q-92 0 -150.5 39t-101.5 102h-4v-545h-88zM184 500q0 -70 6.5 -144.5t31 -137t72.5 -103.5t132 -43q88 0 139 37.5t77 99 t33 140.5t7 159q0 88 -7 167t-34 137t-76 92t-133 34q-90 0 -140 -43t-73.5 -107.5t-29 -142.5t-5.5 -145z"/>
            <glyph unicode="&#xff;" horiz-adv-x="749"
                   d="M12 1006h97l139 -445l127 -426h4q6 25 26.5 91.5t48 155.5t57.5 188.5t57.5 187.5t47 155.5t27.5 92.5h94q-96 -311 -190 -617.5t-193 -615.5q-29 -98 -80 -145.5t-139 -47.5h-41v78h33q66 0 98.5 44t55.5 120l55 178q-84 252 -162 502t-162 504zM156 1223v104h100v-104 h-100zM500 1223v104h98v-104h-98z"/>
            <glyph unicode="&#x152;" horiz-adv-x="1415"
                   d="M90 485v502v48t4 46q6 74 35 138.5t79 112.5t121.5 76t164.5 28q35 0 65.5 -4.5t61.5 -6.5h718v-86h-628v-571h542v-82h-542v-600h628v-86h-714q-55 -12 -131 -12q-168 0 -271.5 85t-124.5 232q-6 45 -7 89t-1 91zM180 449q0 -84 16.5 -154t54.5 -120t98.5 -77.5 t146.5 -27.5q68 0 122 18v1243q-27 10 -57 13.5t-65 3.5q-98 0 -160 -35t-96.5 -91.5t-47 -128t-12.5 -145.5v-499z"/>
            <glyph unicode="&#x153;" horiz-adv-x="1449"
                   d="M82 500q0 100 7 181t28 138q39 104 119.5 152.5t195.5 48.5q76 0 134.5 -23.5t99.5 -62.5q49 -49 69 -127q33 94 104.5 153.5t200.5 59.5q100 0 165 -35t104 -94.5t54 -139t15 -167.5v-95h-600q0 -100 12.5 -179t43 -133t84 -82.5t135.5 -28.5q74 0 135 38.5t84 98.5 q20 -10 38.5 -19.5t37.5 -19.5q-35 -86 -114 -131t-177 -45q-141 0 -216 53t-108 154q-16 -43 -33 -68q-88 -139 -278 -139q-131 0 -207 55q-78 57 -105.5 166.5t-27.5 290.5zM170 489q0 -92 7 -160.5t24 -117.5q25 -63 67 -100q29 -25 69 -35t89 -10q78 0 138.5 37.5 t88.5 113.5q18 53 24.5 127t6.5 164q0 113 -11 187.5t-28 113.5q-29 66 -85 98.5t-132 32.5q-72 0 -129 -30.5t-88 -94.5q-25 -45 -33 -127t-8 -199zM780 563h508v4q0 66 -9 132.5t-35.5 119.5t-76 86t-127.5 33t-127 -30.5t-78.5 -82t-41 -120t-13.5 -142.5z"/>
            <glyph unicode="&#x178;" horiz-adv-x="845"
                   d="M14 1425h97l184 -432l127 -295l123 297q10 25 36.5 85.5t55.5 129t55.5 130t36.5 85.5h94l-360 -831v-594h-88v594zM215 1530v104h100v-104h-100zM549 1530v104h98v-104h-98z"/>
            <glyph unicode="&#x2c6;" horiz-adv-x="886" d="M162 1171l254 252h69l242 -247l-41 -39l-240 196l-241 -198z"/>
            <glyph unicode="&#x2dc;" horiz-adv-x="864"
                   d="M139 1245q33 57 77 90t91 33q31 0 62.5 -13.5t62.5 -28.5t61.5 -27.5t59.5 -12.5q57 0 109 82l55 -33q-33 -68 -75 -98.5t-89 -30.5q-31 0 -62.5 12.5t-62.5 28t-61.5 28.5t-59.5 13q-31 0 -58.5 -20.5t-55.5 -55.5z"/>
            <glyph unicode="&#x2000;" horiz-adv-x="909"/>
            <glyph unicode="&#x2001;" horiz-adv-x="1819"/>
            <glyph unicode="&#x2002;" horiz-adv-x="909"/>
            <glyph unicode="&#x2003;" horiz-adv-x="1819"/>
            <glyph unicode="&#x2004;" horiz-adv-x="606"/>
            <glyph unicode="&#x2005;" horiz-adv-x="454"/>
            <glyph unicode="&#x2006;" horiz-adv-x="303"/>
            <glyph unicode="&#x2007;" horiz-adv-x="303"/>
            <glyph unicode="&#x2008;" horiz-adv-x="227"/>
            <glyph unicode="&#x2009;" horiz-adv-x="363"/>
            <glyph unicode="&#x200a;" horiz-adv-x="101"/>
            <glyph unicode="&#x2010;" horiz-adv-x="708" d="M106 510v82h508v-82h-508z"/>
            <glyph unicode="&#x2011;" horiz-adv-x="708" d="M106 510v82h508v-82h-508z"/>
            <glyph unicode="&#x2012;" horiz-adv-x="708" d="M106 510v82h508v-82h-508z"/>
            <glyph unicode="&#x2013;" horiz-adv-x="1017" d="M41 496v84h936v-84h-936z"/>
            <glyph unicode="&#x2014;" horiz-adv-x="2041" d="M41 496v84h1960v-84h-1960z"/>
            <glyph unicode="&#x2018;" horiz-adv-x="358" d="M117 1133v127l78 194h55l-45 -197h28v-124h-116z"/>
            <glyph unicode="&#x2019;" horiz-adv-x="358" d="M117 1133l45 198h-29v125h117v-127l-78 -196h-55z"/>
            <glyph unicode="&#x201a;" horiz-adv-x="317"
                   d="M84 -199q12 49 23.5 99.5t23.5 97.5h-31v123h117v-117l-78 -203h-55z"/>
            <glyph unicode="&#x201c;" horiz-adv-x="495"
                   d="M80 1133v127l78 194h55l-47 -197h31v-124h-117zM276 1133v127l76 194h58l-48 -197h29v-124h-115z"/>
            <glyph unicode="&#x201d;" horiz-adv-x="495"
                   d="M82 1135l47 196h-29v125h115v-127l-76 -194h-57zM279 1135l47 196h-31v125h117v-127l-78 -194h-55z"/>
            <glyph unicode="&#x201e;" horiz-adv-x="571"
                   d="M96 -199l47 197h-30v123h116v-117l-77 -203h-56zM326 -199l47 197h-31v123h117v-117l-78 -203h-55z"/>
            <glyph unicode="&#x2022;" horiz-adv-x="681"
                   d="M172 549q0 74 50 126t122 52q37 0 68.5 -14.5t55.5 -38t38 -56t14 -69.5t-14 -70t-38 -56.5t-55.5 -37.5t-68.5 -14q-72 0 -122 52t-50 126z"/>
            <glyph unicode="&#x2026;" horiz-adv-x="1144"
                   d="M104 0v125h115v-125h-115zM492 0v125h114v-125h-114zM883 0v125h114v-125h-114z"/>
            <glyph unicode="&#x202f;" horiz-adv-x="363"/>
            <glyph unicode="&#x2039;" horiz-adv-x="505" d="M102 461l230 366h90l-225 -366l225 -367h-90z"/>
            <glyph unicode="&#x203a;" horiz-adv-x="497" d="M102 94l226 367l-226 366h91l231 -366l-229 -367h-93z"/>
            <glyph unicode="&#x205f;" horiz-adv-x="454"/>
            <glyph unicode="&#x20ac;"
                   d="M29 586v65h77v144h-77v65h77v178q0 88 26 162t74 127t116.5 82t152.5 29q123 0 218 -61.5t130 -182.5l-86 -29q-29 92 -99.5 141.5t-162.5 49.5q-68 0 -120 -24.5t-88 -67.5t-53 -101.5t-17 -124.5v-178h426v-65h-426v-144h428v-65h-428v-205q0 -66 18 -123t54 -99 t88.5 -66.5t117.5 -24.5q201 0 264 194l86 -26q-37 -129 -132 -189.5t-218 -60.5q-172 0 -270.5 109.5t-98.5 295.5v195h-77z"/>
            <glyph unicode="&#x2122;" horiz-adv-x="1445"
                   d="M68 1354v71h489v-71h-207v-715h-74v715h-208zM653 639v784h72q23 -49 57.5 -124.5t72.5 -156.5t73 -157t59 -125q25 49 59.5 125t72.5 157t73 156.5t57 124.5h68v-784h-72v602l-231 -479h-58l-229 483h-2v-606h-72z"/>
            <glyph unicode="&#x25fc;" horiz-adv-x="1003" d="M0 0v1004h1004v-1004h-1004z"/>
            <hkern u1="&#x31;" u2="&#xba;" k="102"/>
            <hkern u1="&#x31;" u2="&#xaa;" k="41"/>
            <hkern u1="C" u2="&#xcf;" k="20"/>
            <hkern u1="C" u2="&#xce;" k="20"/>
            <hkern u1="C" u2="&#xcd;" k="20"/>
            <hkern u1="C" u2="&#xcc;" k="20"/>
            <hkern u1="C" u2="N" k="20"/>
            <hkern u1="C" u2="M" k="20"/>
            <hkern u1="C" u2="I" k="20"/>
            <hkern u1="C" u2="H" k="20"/>
            <hkern u1="F" u2="&#x2026;" k="123"/>
            <hkern u1="F" u2="&#xef;" k="-102"/>
            <hkern u1="F" u2="&#xee;" k="-61"/>
            <hkern u1="F" u2="&#xed;" k="20"/>
            <hkern u1="F" u2="&#xec;" k="-61"/>
            <hkern u1="F" u2="&#xe6;" k="82"/>
            <hkern u1="F" u2="&#xe5;" k="82"/>
            <hkern u1="F" u2="&#xe4;" k="82"/>
            <hkern u1="F" u2="&#xe3;" k="82"/>
            <hkern u1="F" u2="&#xe2;" k="82"/>
            <hkern u1="F" u2="&#xe1;" k="82"/>
            <hkern u1="F" u2="&#xe0;" k="82"/>
            <hkern u1="F" u2="&#xc6;" k="61"/>
            <hkern u1="F" u2="&#xc5;" k="61"/>
            <hkern u1="F" u2="&#xc4;" k="61"/>
            <hkern u1="F" u2="&#xc3;" k="61"/>
            <hkern u1="F" u2="&#xc2;" k="61"/>
            <hkern u1="F" u2="&#xc1;" k="61"/>
            <hkern u1="F" u2="&#xc0;" k="61"/>
            <hkern u1="F" u2="s" k="20"/>
            <hkern u1="F" u2="r" k="20"/>
            <hkern u1="F" u2="p" k="20"/>
            <hkern u1="F" u2="n" k="20"/>
            <hkern u1="F" u2="m" k="20"/>
            <hkern u1="F" u2="i" k="20"/>
            <hkern u1="F" u2="a" k="82"/>
            <hkern u1="F" u2="J" k="143"/>
            <hkern u1="F" u2="A" k="61"/>
            <hkern u1="F" u2="&#x2e;" k="123"/>
            <hkern u1="F" u2="&#x2c;" k="123"/>
            <hkern u1="L" u2="&#x27;" k="143"/>
            <hkern u1="P" u2="&#x2026;" k="143"/>
            <hkern u1="P" u2="&#x178;" k="20"/>
            <hkern u1="P" u2="&#xf8;" k="61"/>
            <hkern u1="P" u2="&#xf6;" k="61"/>
            <hkern u1="P" u2="&#xf5;" k="61"/>
            <hkern u1="P" u2="&#xf4;" k="61"/>
            <hkern u1="P" u2="&#xf3;" k="61"/>
            <hkern u1="P" u2="&#xf2;" k="61"/>
            <hkern u1="P" u2="&#xf0;" k="61"/>
            <hkern u1="P" u2="&#xeb;" k="61"/>
            <hkern u1="P" u2="&#xea;" k="61"/>
            <hkern u1="P" u2="&#xe9;" k="61"/>
            <hkern u1="P" u2="&#xe8;" k="61"/>
            <hkern u1="P" u2="&#xe7;" k="61"/>
            <hkern u1="P" u2="&#xe6;" k="61"/>
            <hkern u1="P" u2="&#xe5;" k="61"/>
            <hkern u1="P" u2="&#xe4;" k="61"/>
            <hkern u1="P" u2="&#xe3;" k="61"/>
            <hkern u1="P" u2="&#xe2;" k="61"/>
            <hkern u1="P" u2="&#xe1;" k="61"/>
            <hkern u1="P" u2="&#xe0;" k="61"/>
            <hkern u1="P" u2="&#xdd;" k="20"/>
            <hkern u1="P" u2="&#xc6;" k="102"/>
            <hkern u1="P" u2="&#xc5;" k="102"/>
            <hkern u1="P" u2="&#xc4;" k="102"/>
            <hkern u1="P" u2="&#xc3;" k="102"/>
            <hkern u1="P" u2="&#xc2;" k="102"/>
            <hkern u1="P" u2="&#xc1;" k="102"/>
            <hkern u1="P" u2="&#xc0;" k="102"/>
            <hkern u1="P" u2="q" k="61"/>
            <hkern u1="P" u2="o" k="61"/>
            <hkern u1="P" u2="g" k="61"/>
            <hkern u1="P" u2="e" k="61"/>
            <hkern u1="P" u2="d" k="61"/>
            <hkern u1="P" u2="c" k="61"/>
            <hkern u1="P" u2="a" k="61"/>
            <hkern u1="P" u2="Y" k="20"/>
            <hkern u1="P" u2="A" k="102"/>
            <hkern u1="P" u2="&#x2e;" k="143"/>
            <hkern u1="P" u2="&#x2c;" k="143"/>
            <hkern u1="R" u2="&#xe6;" k="41"/>
            <hkern u1="R" u2="&#xe5;" k="41"/>
            <hkern u1="R" u2="&#xe4;" k="41"/>
            <hkern u1="R" u2="&#xe3;" k="41"/>
            <hkern u1="R" u2="&#xe2;" k="41"/>
            <hkern u1="R" u2="&#xe1;" k="41"/>
            <hkern u1="R" u2="&#xe0;" k="41"/>
            <hkern u1="R" u2="a" k="41"/>
            <hkern u1="T" u2="&#xef;" k="-102"/>
            <hkern u1="T" u2="&#xee;" k="-61"/>
            <hkern u1="T" u2="&#xec;" k="-82"/>
            <hkern u1="V" u2="&#xef;" k="-82"/>
            <hkern u1="V" u2="&#xee;" k="-20"/>
            <hkern u1="V" u2="&#xec;" k="-41"/>
            <hkern u1="W" u2="&#xef;" k="-82"/>
            <hkern u1="W" u2="&#xee;" k="-20"/>
            <hkern u1="W" u2="&#xec;" k="-41"/>
            <hkern u1="Y" u2="&#xef;" k="-102"/>
            <hkern u1="Y" u2="&#xec;" k="-41"/>
            <hkern u1="n" u2="&#x201d;" k="20"/>
            <hkern u1="n" u2="&#x2019;" k="20"/>
            <hkern u1="r" u2="r" k="82"/>
            <hkern u1="r" u2="d" k="20"/>
            <hkern u1="&#xbf;" u2="&#x201d;" k="102"/>
            <hkern u1="&#xbf;" u2="&#x2019;" k="102"/>
            <hkern u1="&#xdd;" u2="&#xef;" k="-102"/>
            <hkern u1="&#xdd;" u2="&#xec;" k="-41"/>
            <hkern u1="&#x178;" u2="&#xef;" k="-102"/>
            <hkern u1="&#x178;" u2="&#xec;" k="-41"/>
            <hkern u1="&#x2018;" u2="&#xbf;" k="143"/>
            <hkern u1="&#x2019;" u2="n" k="102"/>
            <hkern u1="&#x201c;" u2="&#xbf;" k="143"/>
            <hkern u1="&#x201d;" u2="n" k="102"/>
            <hkern g1="D,O,Q,Eth,Ograve,Oacute,Ocircumflex,Otilde,Odieresis,Oslash" g2="Y,Yacute,Ydieresis" k="41"/>
            <hkern g1="K" g2="v,w,y" k="41"/>
            <hkern g1="L" g2="quoteright,quotedblright" k="143"/>
            <hkern g1="L" g2="T" k="123"/>
            <hkern g1="L" g2="V,W" k="123"/>
            <hkern g1="L" g2="Y,Yacute,Ydieresis" k="164"/>
            <hkern g1="L" g2="v,w,y" k="82"/>
            <hkern g1="L" g2="hyphen,uni00AD,endash,emdash" k="123"/>
            <hkern g1="T" g2="v,w,y" k="102"/>
            <hkern g1="T" g2="hyphen,uni00AD,endash,emdash" k="82"/>
            <hkern g1="T" g2="A,Agrave,Aacute,Acircumflex,Atilde,Adieresis,Aring,AE" k="61"/>
            <hkern g1="T" g2="a,agrave,aacute,acircumflex,atilde,adieresis,aring,ae" k="82"/>
            <hkern g1="T"
                   g2="c,d,e,g,o,q,ccedilla,egrave,eacute,ecircumflex,edieresis,eth,ograve,oacute,ocircumflex,otilde,odieresis,oslash"
                   k="82"/>
            <hkern g1="T" g2="i,m,n,p,r,igrave,iacute,icircumflex,idieresis" k="20"/>
            <hkern g1="T" g2="s" k="82"/>
            <hkern g1="T" g2="u,ugrave,uacute,ucircumflex,udieresis" k="82"/>
            <hkern g1="V,W" g2="hyphen,uni00AD,endash,emdash" k="82"/>
            <hkern g1="V,W" g2="A,Agrave,Aacute,Acircumflex,Atilde,Adieresis,Aring,AE" k="102"/>
            <hkern g1="V,W" g2="a,agrave,aacute,acircumflex,atilde,adieresis,aring,ae" k="102"/>
            <hkern g1="V,W"
                   g2="c,d,e,g,o,q,ccedilla,egrave,eacute,ecircumflex,edieresis,eth,ograve,oacute,ocircumflex,otilde,odieresis,oslash"
                   k="61"/>
            <hkern g1="V,W" g2="i,m,n,p,r,igrave,iacute,icircumflex,idieresis" k="41"/>
            <hkern g1="V,W" g2="s" k="82"/>
            <hkern g1="V,W" g2="u,ugrave,uacute,ucircumflex,udieresis" k="41"/>
            <hkern g1="V,W" g2="comma,period,ellipsis" k="82"/>
            <hkern g1="Y,Yacute,Ydieresis" g2="v,w,y" k="61"/>
            <hkern g1="Y,Yacute,Ydieresis" g2="A,Agrave,Aacute,Acircumflex,Atilde,Adieresis,Aring,AE" k="82"/>
            <hkern g1="Y,Yacute,Ydieresis" g2="a,agrave,aacute,acircumflex,atilde,adieresis,aring,ae" k="143"/>
            <hkern g1="Y,Yacute,Ydieresis"
                   g2="c,d,e,g,o,q,ccedilla,egrave,eacute,ecircumflex,edieresis,eth,ograve,oacute,ocircumflex,otilde,odieresis,oslash"
                   k="82"/>
            <hkern g1="Y,Yacute,Ydieresis" g2="i,m,n,p,r,igrave,iacute,icircumflex,idieresis" k="61"/>
            <hkern g1="Y,Yacute,Ydieresis" g2="s" k="123"/>
            <hkern g1="Y,Yacute,Ydieresis" g2="u,ugrave,uacute,ucircumflex,udieresis" k="102"/>
            <hkern g1="Y,Yacute,Ydieresis" g2="comma,period,ellipsis" k="102"/>
            <hkern g1="Y,Yacute,Ydieresis" g2="H,I,M,N,Igrave,Iacute,Icircumflex,Idieresis" k="41"/>
            <hkern g1="a,agrave,aacute,acircumflex,atilde,adieresis,aring" g2="quoteright,quotedblright" k="61"/>
            <hkern g1="b,o,p,ograve,oacute,ocircumflex,otilde,odieresis,oslash,thorn" g2="quoteright,quotedblright"
                   k="61"/>
            <hkern g1="e,ae,egrave,eacute,ecircumflex,edieresis" g2="quoteright,quotedblright" k="82"/>
            <hkern g1="g,q,u,ugrave,uacute,ucircumflex,udieresis" g2="quoteright,quotedblright" k="41"/>
            <hkern g1="h,m,n" g2="quoteright,quotedblright" k="61"/>
            <hkern g1="hyphen,uni00AD,endash,emdash" g2="Y,Yacute,Ydieresis" k="41"/>
            <hkern g1="k" g2="quoteright,quotedblright" k="61"/>
            <hkern g1="k" g2="i,m,n,p,r,igrave,iacute,icircumflex,idieresis" k="20"/>
            <hkern g1="quoteright,quotedblright" g2="a,agrave,aacute,acircumflex,atilde,adieresis,aring,ae" k="123"/>
            <hkern g1="quoteright,quotedblright"
                   g2="c,d,e,g,o,q,ccedilla,egrave,eacute,ecircumflex,edieresis,eth,ograve,oacute,ocircumflex,otilde,odieresis,oslash"
                   k="143"/>
            <hkern g1="quoteright,quotedblright" g2="s" k="102"/>
            <hkern g1="quotesinglbase,quotedblbase" g2="T" k="102"/>
            <hkern g1="quotesinglbase,quotedblbase" g2="V,W" k="123"/>
            <hkern g1="r" g2="a,agrave,aacute,acircumflex,atilde,adieresis,aring,ae" k="61"/>
            <hkern g1="r" g2="comma,period,ellipsis" k="102"/>
            <hkern g1="s" g2="quoteright,quotedblright" k="61"/>
            <hkern g1="v,w,y"
                   g2="c,d,e,g,o,q,ccedilla,egrave,eacute,ecircumflex,edieresis,eth,ograve,oacute,ocircumflex,otilde,odieresis,oslash"
                   k="41"/>
        </font>
    </defs>
</svg>